(['/media/codenginebd/My Works and Stuffs1/Upwork/Alex '
  'Rendson/sexoffender/program.py'],
 ['/media/codenginebd/My Works and Stuffs1/Upwork/Alex Rendson/sexoffender',
  '/media/codenginebd/My Works and Stuffs1/Upwork/Alex Rendson/sexoffender'],
 ['codecs'],
 [],
 [],
 [],
 False,
 False,
 '3.5.2 (default, Nov 17 2016, 17:05:23) \n[GCC 5.4.0 20160609]',
 [('pyi_rth__tkinter',
   '/home/codenginebd/Desktop/ENV/book_rental/lib/python3.5/site-packages/PyInstaller/loader/rthooks/pyi_rth__tkinter.py',
   'PYSOURCE'),
  ('program',
   '/media/codenginebd/My Works and Stuffs1/Upwork/Alex '
   'Rendson/sexoffender/program.py',
   'PYSOURCE')],
 [('posixpath',
   '/home/codenginebd/Desktop/ENV/book_rental/lib/python3.5/posixpath.py',
   'PYMODULE'),
  ('_strptime', '/usr/lib/python3.5/_strptime.py', 'PYMODULE'),
  ('datetime', '/usr/lib/python3.5/datetime.py', 'PYMODULE'),
  ('_compat_pickle', '/usr/lib/python3.5/_compat_pickle.py', 'PYMODULE'),
  ('pickle', '/usr/lib/python3.5/pickle.py', 'PYMODULE'),
  ('__future__',
   '/home/codenginebd/Desktop/ENV/book_rental/lib/python3.5/__future__.py',
   'PYMODULE'),
  ('difflib', '/usr/lib/python3.5/difflib.py', 'PYMODULE'),
  ('ast', '/usr/lib/python3.5/ast.py', 'PYMODULE'),
  ('imp',
   '/home/codenginebd/Desktop/ENV/book_rental/lib/python3.5/imp.py',
   'PYMODULE'),
  ('inspect', '/usr/lib/python3.5/inspect.py', 'PYMODULE'),
  ('cmd', '/usr/lib/python3.5/cmd.py', 'PYMODULE'),
  ('bdb', '/usr/lib/python3.5/bdb.py', 'PYMODULE'),
  ('opcode', '/usr/lib/python3.5/opcode.py', 'PYMODULE'),
  ('dis', '/usr/lib/python3.5/dis.py', 'PYMODULE'),
  ('codeop', '/usr/lib/python3.5/codeop.py', 'PYMODULE'),
  ('code', '/usr/lib/python3.5/code.py', 'PYMODULE'),
  ('glob', '/usr/lib/python3.5/glob.py', 'PYMODULE'),
  ('shlex', '/usr/lib/python3.5/shlex.py', 'PYMODULE'),
  ('importlib._bootstrap',
   '/home/codenginebd/Desktop/ENV/book_rental/lib/python3.5/importlib/_bootstrap.py',
   'PYMODULE'),
  ('importlib._bootstrap_external',
   '/home/codenginebd/Desktop/ENV/book_rental/lib/python3.5/importlib/_bootstrap_external.py',
   'PYMODULE'),
  ('importlib.machinery',
   '/home/codenginebd/Desktop/ENV/book_rental/lib/python3.5/importlib/machinery.py',
   'PYMODULE'),
  ('importlib.util',
   '/home/codenginebd/Desktop/ENV/book_rental/lib/python3.5/importlib/util.py',
   'PYMODULE'),
  ('importlib.abc',
   '/home/codenginebd/Desktop/ENV/book_rental/lib/python3.5/importlib/abc.py',
   'PYMODULE'),
  ('importlib',
   '/home/codenginebd/Desktop/ENV/book_rental/lib/python3.5/importlib/__init__.py',
   'PYMODULE'),
  ('pkgutil', '/usr/lib/python3.5/pkgutil.py', 'PYMODULE'),
  ('ctypes._endian', '/usr/lib/python3.5/ctypes/_endian.py', 'PYMODULE'),
  ('ctypes', '/usr/lib/python3.5/ctypes/__init__.py', 'PYMODULE'),
  ('ctypes.wintypes', '/usr/lib/python3.5/ctypes/wintypes.py', 'PYMODULE'),
  ('xml', '/usr/lib/python3.5/xml/__init__.py', 'PYMODULE'),
  ('xml.sax.expatreader',
   '/usr/lib/python3.5/xml/sax/expatreader.py',
   'PYMODULE'),
  ('xml.sax.saxutils', '/usr/lib/python3.5/xml/sax/saxutils.py', 'PYMODULE'),
  ('urllib.request', '/usr/lib/python3.5/urllib/request.py', 'PYMODULE'),
  ('getpass', '/usr/lib/python3.5/getpass.py', 'PYMODULE'),
  ('nturl2path', '/usr/lib/python3.5/nturl2path.py', 'PYMODULE'),
  ('ftplib', '/usr/lib/python3.5/ftplib.py', 'PYMODULE'),
  ('netrc', '/usr/lib/python3.5/netrc.py', 'PYMODULE'),
  ('http.cookiejar', '/usr/lib/python3.5/http/cookiejar.py', 'PYMODULE'),
  ('urllib.response', '/usr/lib/python3.5/urllib/response.py', 'PYMODULE'),
  ('urllib.error', '/usr/lib/python3.5/urllib/error.py', 'PYMODULE'),
  ('bisect',
   '/home/codenginebd/Desktop/ENV/book_rental/lib/python3.5/bisect.py',
   'PYMODULE'),
  ('xml.sax', '/usr/lib/python3.5/xml/sax/__init__.py', 'PYMODULE'),
  ('xml.sax.handler', '/usr/lib/python3.5/xml/sax/handler.py', 'PYMODULE'),
  ('xml.sax._exceptions',
   '/usr/lib/python3.5/xml/sax/_exceptions.py',
   'PYMODULE'),
  ('xml.sax.xmlreader', '/usr/lib/python3.5/xml/sax/xmlreader.py', 'PYMODULE'),
  ('xml.parsers', '/usr/lib/python3.5/xml/parsers/__init__.py', 'PYMODULE'),
  ('xml.parsers.expat', '/usr/lib/python3.5/xml/parsers/expat.py', 'PYMODULE'),
  ('plistlib', '/usr/lib/python3.5/plistlib.py', 'PYMODULE'),
  ('platform', '/usr/lib/python3.5/platform.py', 'PYMODULE'),
  ('urllib.parse', '/usr/lib/python3.5/urllib/parse.py', 'PYMODULE'),
  ('tempfile',
   '/home/codenginebd/Desktop/ENV/book_rental/lib/python3.5/tempfile.py',
   'PYMODULE'),
  ('tty', '/usr/lib/python3.5/tty.py', 'PYMODULE'),
  ('pydoc_data', '/usr/lib/python3.5/pydoc_data/__init__.py', 'PYMODULE'),
  ('pydoc_data.topics', '/usr/lib/python3.5/pydoc_data/topics.py', 'PYMODULE'),
  ('html.entities', '/usr/lib/python3.5/html/entities.py', 'PYMODULE'),
  ('html', '/usr/lib/python3.5/html/__init__.py', 'PYMODULE'),
  ('ipaddress', '/usr/lib/python3.5/ipaddress.py', 'PYMODULE'),
  ('ssl', '/usr/lib/python3.5/ssl.py', 'PYMODULE'),
  ('http.client', '/usr/lib/python3.5/http/client.py', 'PYMODULE'),
  ('mimetypes', '/usr/lib/python3.5/mimetypes.py', 'PYMODULE'),
  ('socketserver', '/usr/lib/python3.5/socketserver.py', 'PYMODULE'),
  ('http', '/usr/lib/python3.5/http/__init__.py', 'PYMODULE'),
  ('http.server', '/usr/lib/python3.5/http/server.py', 'PYMODULE'),
  ('uu', '/usr/lib/python3.5/uu.py', 'PYMODULE'),
  ('email.feedparser', '/usr/lib/python3.5/email/feedparser.py', 'PYMODULE'),
  ('email.parser', '/usr/lib/python3.5/email/parser.py', 'PYMODULE'),
  ('email', '/usr/lib/python3.5/email/__init__.py', 'PYMODULE'),
  ('optparse', '/usr/lib/python3.5/optparse.py', 'PYMODULE'),
  ('calendar', '/usr/lib/python3.5/calendar.py', 'PYMODULE'),
  ('email._parseaddr', '/usr/lib/python3.5/email/_parseaddr.py', 'PYMODULE'),
  ('email.utils', '/usr/lib/python3.5/email/utils.py', 'PYMODULE'),
  ('email.errors', '/usr/lib/python3.5/email/errors.py', 'PYMODULE'),
  ('email.header', '/usr/lib/python3.5/email/header.py', 'PYMODULE'),
  ('email._policybase', '/usr/lib/python3.5/email/_policybase.py', 'PYMODULE'),
  ('email.base64mime', '/usr/lib/python3.5/email/base64mime.py', 'PYMODULE'),
  ('email.encoders', '/usr/lib/python3.5/email/encoders.py', 'PYMODULE'),
  ('email.charset', '/usr/lib/python3.5/email/charset.py', 'PYMODULE'),
  ('email._encoded_words',
   '/usr/lib/python3.5/email/_encoded_words.py',
   'PYMODULE'),
  ('hashlib',
   '/home/codenginebd/Desktop/ENV/book_rental/lib/python3.5/hashlib.py',
   'PYMODULE'),
  ('random',
   '/home/codenginebd/Desktop/ENV/book_rental/lib/python3.5/random.py',
   'PYMODULE'),
  ('email.generator', '/usr/lib/python3.5/email/generator.py', 'PYMODULE'),
  ('email.iterators', '/usr/lib/python3.5/email/iterators.py', 'PYMODULE'),
  ('urllib', '/usr/lib/python3.5/urllib/__init__.py', 'PYMODULE'),
  ('email._header_value_parser',
   '/usr/lib/python3.5/email/_header_value_parser.py',
   'PYMODULE'),
  ('email.headerregistry',
   '/usr/lib/python3.5/email/headerregistry.py',
   'PYMODULE'),
  ('email.quoprimime', '/usr/lib/python3.5/email/quoprimime.py', 'PYMODULE'),
  ('email.contentmanager',
   '/usr/lib/python3.5/email/contentmanager.py',
   'PYMODULE'),
  ('email.policy', '/usr/lib/python3.5/email/policy.py', 'PYMODULE'),
  ('email.message', '/usr/lib/python3.5/email/message.py', 'PYMODULE'),
  ('gzip', '/usr/lib/python3.5/gzip.py', 'PYMODULE'),
  ('tarfile',
   '/home/codenginebd/Desktop/ENV/book_rental/lib/python3.5/tarfile.py',
   'PYMODULE'),
  ('lzma', '/usr/lib/python3.5/lzma.py', 'PYMODULE'),
  ('py_compile', '/usr/lib/python3.5/py_compile.py', 'PYMODULE'),
  ('zipfile', '/usr/lib/python3.5/zipfile.py', 'PYMODULE'),
  ('shutil',
   '/home/codenginebd/Desktop/ENV/book_rental/lib/python3.5/shutil.py',
   'PYMODULE'),
  ('socket', '/usr/lib/python3.5/socket.py', 'PYMODULE'),
  ('webbrowser', '/usr/lib/python3.5/webbrowser.py', 'PYMODULE'),
  ('pydoc', '/usr/lib/python3.5/pydoc.py', 'PYMODULE'),
  ('pdb', '/usr/lib/python3.5/pdb.py', 'PYMODULE'),
  ('unittest.util', '/usr/lib/python3.5/unittest/util.py', 'PYMODULE'),
  ('unittest.result', '/usr/lib/python3.5/unittest/result.py', 'PYMODULE'),
  ('logging', '/usr/lib/python3.5/logging/__init__.py', 'PYMODULE'),
  ('pprint', '/usr/lib/python3.5/pprint.py', 'PYMODULE'),
  ('unittest.case', '/usr/lib/python3.5/unittest/case.py', 'PYMODULE'),
  ('unittest.suite', '/usr/lib/python3.5/unittest/suite.py', 'PYMODULE'),
  ('fnmatch',
   '/home/codenginebd/Desktop/ENV/book_rental/lib/python3.5/fnmatch.py',
   'PYMODULE'),
  ('unittest.loader', '/usr/lib/python3.5/unittest/loader.py', 'PYMODULE'),
  ('unittest.runner', '/usr/lib/python3.5/unittest/runner.py', 'PYMODULE'),
  ('unittest.main', '/usr/lib/python3.5/unittest/main.py', 'PYMODULE'),
  ('unittest.signals', '/usr/lib/python3.5/unittest/signals.py', 'PYMODULE'),
  ('unittest', '/usr/lib/python3.5/unittest/__init__.py', 'PYMODULE'),
  ('doctest', '/usr/lib/python3.5/doctest.py', 'PYMODULE'),
  ('base64',
   '/home/codenginebd/Desktop/ENV/book_rental/lib/python3.5/base64.py',
   'PYMODULE'),
  ('stringprep', '/usr/lib/python3.5/stringprep.py', 'PYMODULE'),
  ('getopt', '/usr/lib/python3.5/getopt.py', 'PYMODULE'),
  ('quopri', '/usr/lib/python3.5/quopri.py', 'PYMODULE'),
  ('_compression', '/usr/lib/python3.5/_compression.py', 'PYMODULE'),
  ('bz2', '/usr/lib/python3.5/bz2.py', 'PYMODULE'),
  ('token',
   '/home/codenginebd/Desktop/ENV/book_rental/lib/python3.5/token.py',
   'PYMODULE'),
  ('copy',
   '/home/codenginebd/Desktop/ENV/book_rental/lib/python3.5/copy.py',
   'PYMODULE'),
  ('textwrap', '/usr/lib/python3.5/textwrap.py', 'PYMODULE'),
  ('struct',
   '/home/codenginebd/Desktop/ENV/book_rental/lib/python3.5/struct.py',
   'PYMODULE'),
  ('gettext', '/usr/lib/python3.5/gettext.py', 'PYMODULE'),
  ('argparse', '/usr/lib/python3.5/argparse.py', 'PYMODULE'),
  ('tokenize',
   '/home/codenginebd/Desktop/ENV/book_rental/lib/python3.5/tokenize.py',
   'PYMODULE'),
  ('stat',
   '/home/codenginebd/Desktop/ENV/book_rental/lib/python3.5/stat.py',
   'PYMODULE'),
  ('genericpath',
   '/home/codenginebd/Desktop/ENV/book_rental/lib/python3.5/genericpath.py',
   'PYMODULE'),
  ('string', '/usr/lib/python3.5/string.py', 'PYMODULE'),
  ('ntpath',
   '/home/codenginebd/Desktop/ENV/book_rental/lib/python3.5/ntpath.py',
   'PYMODULE'),
  ('warnings',
   '/home/codenginebd/Desktop/ENV/book_rental/lib/python3.5/warnings.py',
   'PYMODULE'),
  ('enum', '/usr/lib/python3.5/enum.py', 'PYMODULE'),
  ('signal', '/usr/lib/python3.5/signal.py', 'PYMODULE'),
  ('contextlib', '/usr/lib/python3.5/contextlib.py', 'PYMODULE'),
  ('_threading_local', '/usr/lib/python3.5/_threading_local.py', 'PYMODULE'),
  ('selectors', '/usr/lib/python3.5/selectors.py', 'PYMODULE'),
  ('_dummy_thread',
   '/home/codenginebd/Desktop/ENV/book_rental/lib/python3.5/_dummy_thread.py',
   'PYMODULE'),
  ('dummy_threading', '/usr/lib/python3.5/dummy_threading.py', 'PYMODULE'),
  ('subprocess', '/usr/lib/python3.5/subprocess.py', 'PYMODULE'),
  ('os',
   '/home/codenginebd/Desktop/ENV/book_rental/lib/python3.5/os.py',
   'PYMODULE'),
  ('threading', '/usr/lib/python3.5/threading.py', 'PYMODULE'),
  ('scraper',
   '/media/codenginebd/My Works and Stuffs1/Upwork/Alex '
   'Rendson/sexoffender/scraper.py',
   'PYMODULE'),
  ('uuid', '/usr/lib/python3.5/uuid.py', 'PYMODULE'),
  ('ctypes.util', '/usr/lib/python3.5/ctypes/util.py', 'PYMODULE'),
  ('csv', '/usr/lib/python3.5/csv.py', 'PYMODULE'),
  ('parser',
   '/media/codenginebd/My Works and Stuffs1/Upwork/Alex '
   'Rendson/sexoffender/parser.py',
   'PYMODULE'),
  ('bs4',
   '/home/codenginebd/Desktop/ENV/book_rental/lib/python3.5/site-packages/bs4/__init__.py',
   'PYMODULE'),
  ('bs4.element',
   '/home/codenginebd/Desktop/ENV/book_rental/lib/python3.5/site-packages/bs4/element.py',
   'PYMODULE'),
  ('bs4.dammit',
   '/home/codenginebd/Desktop/ENV/book_rental/lib/python3.5/site-packages/bs4/dammit.py',
   'PYMODULE'),
  ('chardet',
   '/home/codenginebd/Desktop/ENV/book_rental/lib/python3.5/site-packages/chardet/__init__.py',
   'PYMODULE'),
  ('chardet.version',
   '/home/codenginebd/Desktop/ENV/book_rental/lib/python3.5/site-packages/chardet/version.py',
   'PYMODULE'),
  ('chardet.universaldetector',
   '/home/codenginebd/Desktop/ENV/book_rental/lib/python3.5/site-packages/chardet/universaldetector.py',
   'PYMODULE'),
  ('chardet.sbcsgroupprober',
   '/home/codenginebd/Desktop/ENV/book_rental/lib/python3.5/site-packages/chardet/sbcsgroupprober.py',
   'PYMODULE'),
  ('chardet.langturkishmodel',
   '/home/codenginebd/Desktop/ENV/book_rental/lib/python3.5/site-packages/chardet/langturkishmodel.py',
   'PYMODULE'),
  ('chardet.hebrewprober',
   '/home/codenginebd/Desktop/ENV/book_rental/lib/python3.5/site-packages/chardet/hebrewprober.py',
   'PYMODULE'),
  ('chardet.charsetprober',
   '/home/codenginebd/Desktop/ENV/book_rental/lib/python3.5/site-packages/chardet/charsetprober.py',
   'PYMODULE'),
  ('chardet.langhebrewmodel',
   '/home/codenginebd/Desktop/ENV/book_rental/lib/python3.5/site-packages/chardet/langhebrewmodel.py',
   'PYMODULE'),
  ('chardet.langthaimodel',
   '/home/codenginebd/Desktop/ENV/book_rental/lib/python3.5/site-packages/chardet/langthaimodel.py',
   'PYMODULE'),
  ('chardet.langbulgarianmodel',
   '/home/codenginebd/Desktop/ENV/book_rental/lib/python3.5/site-packages/chardet/langbulgarianmodel.py',
   'PYMODULE'),
  ('chardet.langgreekmodel',
   '/home/codenginebd/Desktop/ENV/book_rental/lib/python3.5/site-packages/chardet/langgreekmodel.py',
   'PYMODULE'),
  ('chardet.langcyrillicmodel',
   '/home/codenginebd/Desktop/ENV/book_rental/lib/python3.5/site-packages/chardet/langcyrillicmodel.py',
   'PYMODULE'),
  ('chardet.sbcharsetprober',
   '/home/codenginebd/Desktop/ENV/book_rental/lib/python3.5/site-packages/chardet/sbcharsetprober.py',
   'PYMODULE'),
  ('chardet.mbcsgroupprober',
   '/home/codenginebd/Desktop/ENV/book_rental/lib/python3.5/site-packages/chardet/mbcsgroupprober.py',
   'PYMODULE'),
  ('chardet.euctwprober',
   '/home/codenginebd/Desktop/ENV/book_rental/lib/python3.5/site-packages/chardet/euctwprober.py',
   'PYMODULE'),
  ('chardet.mbcssm',
   '/home/codenginebd/Desktop/ENV/book_rental/lib/python3.5/site-packages/chardet/mbcssm.py',
   'PYMODULE'),
  ('chardet.chardistribution',
   '/home/codenginebd/Desktop/ENV/book_rental/lib/python3.5/site-packages/chardet/chardistribution.py',
   'PYMODULE'),
  ('chardet.jisfreq',
   '/home/codenginebd/Desktop/ENV/book_rental/lib/python3.5/site-packages/chardet/jisfreq.py',
   'PYMODULE'),
  ('chardet.big5freq',
   '/home/codenginebd/Desktop/ENV/book_rental/lib/python3.5/site-packages/chardet/big5freq.py',
   'PYMODULE'),
  ('chardet.gb2312freq',
   '/home/codenginebd/Desktop/ENV/book_rental/lib/python3.5/site-packages/chardet/gb2312freq.py',
   'PYMODULE'),
  ('chardet.euckrfreq',
   '/home/codenginebd/Desktop/ENV/book_rental/lib/python3.5/site-packages/chardet/euckrfreq.py',
   'PYMODULE'),
  ('chardet.euctwfreq',
   '/home/codenginebd/Desktop/ENV/book_rental/lib/python3.5/site-packages/chardet/euctwfreq.py',
   'PYMODULE'),
  ('chardet.codingstatemachine',
   '/home/codenginebd/Desktop/ENV/book_rental/lib/python3.5/site-packages/chardet/codingstatemachine.py',
   'PYMODULE'),
  ('chardet.mbcharsetprober',
   '/home/codenginebd/Desktop/ENV/book_rental/lib/python3.5/site-packages/chardet/mbcharsetprober.py',
   'PYMODULE'),
  ('chardet.big5prober',
   '/home/codenginebd/Desktop/ENV/book_rental/lib/python3.5/site-packages/chardet/big5prober.py',
   'PYMODULE'),
  ('chardet.cp949prober',
   '/home/codenginebd/Desktop/ENV/book_rental/lib/python3.5/site-packages/chardet/cp949prober.py',
   'PYMODULE'),
  ('chardet.euckrprober',
   '/home/codenginebd/Desktop/ENV/book_rental/lib/python3.5/site-packages/chardet/euckrprober.py',
   'PYMODULE'),
  ('chardet.gb2312prober',
   '/home/codenginebd/Desktop/ENV/book_rental/lib/python3.5/site-packages/chardet/gb2312prober.py',
   'PYMODULE'),
  ('chardet.eucjpprober',
   '/home/codenginebd/Desktop/ENV/book_rental/lib/python3.5/site-packages/chardet/eucjpprober.py',
   'PYMODULE'),
  ('chardet.jpcntx',
   '/home/codenginebd/Desktop/ENV/book_rental/lib/python3.5/site-packages/chardet/jpcntx.py',
   'PYMODULE'),
  ('chardet.sjisprober',
   '/home/codenginebd/Desktop/ENV/book_rental/lib/python3.5/site-packages/chardet/sjisprober.py',
   'PYMODULE'),
  ('chardet.utf8prober',
   '/home/codenginebd/Desktop/ENV/book_rental/lib/python3.5/site-packages/chardet/utf8prober.py',
   'PYMODULE'),
  ('chardet.latin1prober',
   '/home/codenginebd/Desktop/ENV/book_rental/lib/python3.5/site-packages/chardet/latin1prober.py',
   'PYMODULE'),
  ('chardet.escprober',
   '/home/codenginebd/Desktop/ENV/book_rental/lib/python3.5/site-packages/chardet/escprober.py',
   'PYMODULE'),
  ('chardet.escsm',
   '/home/codenginebd/Desktop/ENV/book_rental/lib/python3.5/site-packages/chardet/escsm.py',
   'PYMODULE'),
  ('chardet.enums',
   '/home/codenginebd/Desktop/ENV/book_rental/lib/python3.5/site-packages/chardet/enums.py',
   'PYMODULE'),
  ('chardet.charsetgroupprober',
   '/home/codenginebd/Desktop/ENV/book_rental/lib/python3.5/site-packages/chardet/charsetgroupprober.py',
   'PYMODULE'),
  ('chardet.compat',
   '/home/codenginebd/Desktop/ENV/book_rental/lib/python3.5/site-packages/chardet/compat.py',
   'PYMODULE'),
  ('bs4.builder',
   '/home/codenginebd/Desktop/ENV/book_rental/lib/python3.5/site-packages/bs4/builder/__init__.py',
   'PYMODULE'),
  ('bs4.builder._lxml',
   '/home/codenginebd/Desktop/ENV/book_rental/lib/python3.5/site-packages/bs4/builder/_lxml.py',
   'PYMODULE'),
  ('lxml',
   '/home/codenginebd/Desktop/ENV/book_rental/lib/python3.5/site-packages/lxml/__init__.py',
   'PYMODULE'),
  ('bs4.builder._html5lib',
   '/home/codenginebd/Desktop/ENV/book_rental/lib/python3.5/site-packages/bs4/builder/_html5lib.py',
   'PYMODULE'),
  ('bs4.builder._htmlparser',
   '/home/codenginebd/Desktop/ENV/book_rental/lib/python3.5/site-packages/bs4/builder/_htmlparser.py',
   'PYMODULE'),
  ('html.parser', '/usr/lib/python3.5/html/parser.py', 'PYMODULE'),
  ('_markupbase', '/usr/lib/python3.5/_markupbase.py', 'PYMODULE'),
  ('web_browser',
   '/media/codenginebd/My Works and Stuffs1/Upwork/Alex '
   'Rendson/sexoffender/web_browser.py',
   'PYMODULE'),
  ('selenium.webdriver.common.keys',
   '/home/codenginebd/Desktop/ENV/book_rental/lib/python3.5/site-packages/selenium/webdriver/common/keys.py',
   'PYMODULE'),
  ('selenium.webdriver.common',
   '/home/codenginebd/Desktop/ENV/book_rental/lib/python3.5/site-packages/selenium/webdriver/common/__init__.py',
   'PYMODULE'),
  ('selenium.webdriver.common.service',
   '/home/codenginebd/Desktop/ENV/book_rental/lib/python3.5/site-packages/selenium/webdriver/common/service.py',
   'PYMODULE'),
  ('selenium.webdriver.common.utils',
   '/home/codenginebd/Desktop/ENV/book_rental/lib/python3.5/site-packages/selenium/webdriver/common/utils.py',
   'PYMODULE'),
  ('selenium.common.exceptions',
   '/home/codenginebd/Desktop/ENV/book_rental/lib/python3.5/site-packages/selenium/common/exceptions.py',
   'PYMODULE'),
  ('selenium.common',
   '/home/codenginebd/Desktop/ENV/book_rental/lib/python3.5/site-packages/selenium/common/__init__.py',
   'PYMODULE'),
  ('selenium.webdriver',
   '/home/codenginebd/Desktop/ENV/book_rental/lib/python3.5/site-packages/selenium/webdriver/__init__.py',
   'PYMODULE'),
  ('selenium.webdriver.common.proxy',
   '/home/codenginebd/Desktop/ENV/book_rental/lib/python3.5/site-packages/selenium/webdriver/common/proxy.py',
   'PYMODULE'),
  ('selenium.webdriver.common.touch_actions',
   '/home/codenginebd/Desktop/ENV/book_rental/lib/python3.5/site-packages/selenium/webdriver/common/touch_actions.py',
   'PYMODULE'),
  ('selenium.webdriver.remote.command',
   '/home/codenginebd/Desktop/ENV/book_rental/lib/python3.5/site-packages/selenium/webdriver/remote/command.py',
   'PYMODULE'),
  ('selenium.webdriver.remote',
   '/home/codenginebd/Desktop/ENV/book_rental/lib/python3.5/site-packages/selenium/webdriver/remote/__init__.py',
   'PYMODULE'),
  ('selenium.webdriver.remote.utils',
   '/home/codenginebd/Desktop/ENV/book_rental/lib/python3.5/site-packages/selenium/webdriver/remote/utils.py',
   'PYMODULE'),
  ('json', '/usr/lib/python3.5/json/__init__.py', 'PYMODULE'),
  ('json.encoder', '/usr/lib/python3.5/json/encoder.py', 'PYMODULE'),
  ('json.decoder', '/usr/lib/python3.5/json/decoder.py', 'PYMODULE'),
  ('json.scanner', '/usr/lib/python3.5/json/scanner.py', 'PYMODULE'),
  ('selenium.webdriver.common.action_chains',
   '/home/codenginebd/Desktop/ENV/book_rental/lib/python3.5/site-packages/selenium/webdriver/common/action_chains.py',
   'PYMODULE'),
  ('selenium.webdriver.common.actions.action_builder',
   '/home/codenginebd/Desktop/ENV/book_rental/lib/python3.5/site-packages/selenium/webdriver/common/actions/action_builder.py',
   'PYMODULE'),
  ('selenium.webdriver.common.actions.pointer_input',
   '/home/codenginebd/Desktop/ENV/book_rental/lib/python3.5/site-packages/selenium/webdriver/common/actions/pointer_input.py',
   'PYMODULE'),
  ('selenium.webdriver.remote.webelement',
   '/home/codenginebd/Desktop/ENV/book_rental/lib/python3.5/site-packages/selenium/webdriver/remote/webelement.py',
   'PYMODULE'),
  ('selenium.webdriver.common.by',
   '/home/codenginebd/Desktop/ENV/book_rental/lib/python3.5/site-packages/selenium/webdriver/common/by.py',
   'PYMODULE'),
  ('selenium.webdriver.common.actions.input_device',
   '/home/codenginebd/Desktop/ENV/book_rental/lib/python3.5/site-packages/selenium/webdriver/common/actions/input_device.py',
   'PYMODULE'),
  ('selenium.webdriver.common.actions.pointer_actions',
   '/home/codenginebd/Desktop/ENV/book_rental/lib/python3.5/site-packages/selenium/webdriver/common/actions/pointer_actions.py',
   'PYMODULE'),
  ('selenium.webdriver.common.actions.mouse_button',
   '/home/codenginebd/Desktop/ENV/book_rental/lib/python3.5/site-packages/selenium/webdriver/common/actions/mouse_button.py',
   'PYMODULE'),
  ('selenium.webdriver.common.actions.key_input',
   '/home/codenginebd/Desktop/ENV/book_rental/lib/python3.5/site-packages/selenium/webdriver/common/actions/key_input.py',
   'PYMODULE'),
  ('selenium.webdriver.common.actions.key_actions',
   '/home/codenginebd/Desktop/ENV/book_rental/lib/python3.5/site-packages/selenium/webdriver/common/actions/key_actions.py',
   'PYMODULE'),
  ('selenium.webdriver.common.actions.interaction',
   '/home/codenginebd/Desktop/ENV/book_rental/lib/python3.5/site-packages/selenium/webdriver/common/actions/interaction.py',
   'PYMODULE'),
  ('selenium.webdriver.common.actions',
   '/home/codenginebd/Desktop/ENV/book_rental/lib/python3.5/site-packages/selenium/webdriver/common/actions/__init__.py',
   'PYMODULE'),
  ('selenium.webdriver.common.desired_capabilities',
   '/home/codenginebd/Desktop/ENV/book_rental/lib/python3.5/site-packages/selenium/webdriver/common/desired_capabilities.py',
   'PYMODULE'),
  ('selenium.webdriver.remote.webdriver',
   '/home/codenginebd/Desktop/ENV/book_rental/lib/python3.5/site-packages/selenium/webdriver/remote/webdriver.py',
   'PYMODULE'),
  ('selenium.webdriver.common.html5.application_cache',
   '/home/codenginebd/Desktop/ENV/book_rental/lib/python3.5/site-packages/selenium/webdriver/common/html5/application_cache.py',
   'PYMODULE'),
  ('selenium.webdriver.common.html5',
   '/home/codenginebd/Desktop/ENV/book_rental/lib/python3.5/site-packages/selenium/webdriver/common/html5/__init__.py',
   'PYMODULE'),
  ('selenium.webdriver.remote.file_detector',
   '/home/codenginebd/Desktop/ENV/book_rental/lib/python3.5/site-packages/selenium/webdriver/remote/file_detector.py',
   'PYMODULE'),
  ('selenium.webdriver.remote.mobile',
   '/home/codenginebd/Desktop/ENV/book_rental/lib/python3.5/site-packages/selenium/webdriver/remote/mobile.py',
   'PYMODULE'),
  ('selenium.webdriver.remote.switch_to',
   '/home/codenginebd/Desktop/ENV/book_rental/lib/python3.5/site-packages/selenium/webdriver/remote/switch_to.py',
   'PYMODULE'),
  ('selenium.webdriver.common.alert',
   '/home/codenginebd/Desktop/ENV/book_rental/lib/python3.5/site-packages/selenium/webdriver/common/alert.py',
   'PYMODULE'),
  ('selenium.webdriver.remote.errorhandler',
   '/home/codenginebd/Desktop/ENV/book_rental/lib/python3.5/site-packages/selenium/webdriver/remote/errorhandler.py',
   'PYMODULE'),
  ('selenium.webdriver.remote.remote_connection',
   '/home/codenginebd/Desktop/ENV/book_rental/lib/python3.5/site-packages/selenium/webdriver/remote/remote_connection.py',
   'PYMODULE'),
  ('selenium.webdriver.android.webdriver',
   '/home/codenginebd/Desktop/ENV/book_rental/lib/python3.5/site-packages/selenium/webdriver/android/webdriver.py',
   'PYMODULE'),
  ('selenium.webdriver.android',
   '/home/codenginebd/Desktop/ENV/book_rental/lib/python3.5/site-packages/selenium/webdriver/android/__init__.py',
   'PYMODULE'),
  ('selenium.webdriver.phantomjs.webdriver',
   '/home/codenginebd/Desktop/ENV/book_rental/lib/python3.5/site-packages/selenium/webdriver/phantomjs/webdriver.py',
   'PYMODULE'),
  ('selenium.webdriver.phantomjs',
   '/home/codenginebd/Desktop/ENV/book_rental/lib/python3.5/site-packages/selenium/webdriver/phantomjs/__init__.py',
   'PYMODULE'),
  ('selenium.webdriver.phantomjs.service',
   '/home/codenginebd/Desktop/ENV/book_rental/lib/python3.5/site-packages/selenium/webdriver/phantomjs/service.py',
   'PYMODULE'),
  ('selenium.webdriver.blackberry.webdriver',
   '/home/codenginebd/Desktop/ENV/book_rental/lib/python3.5/site-packages/selenium/webdriver/blackberry/webdriver.py',
   'PYMODULE'),
  ('selenium.webdriver.blackberry',
   '/home/codenginebd/Desktop/ENV/book_rental/lib/python3.5/site-packages/selenium/webdriver/blackberry/__init__.py',
   'PYMODULE'),
  ('selenium.webdriver.support.ui',
   '/home/codenginebd/Desktop/ENV/book_rental/lib/python3.5/site-packages/selenium/webdriver/support/ui.py',
   'PYMODULE'),
  ('selenium.webdriver.support',
   '/home/codenginebd/Desktop/ENV/book_rental/lib/python3.5/site-packages/selenium/webdriver/support/__init__.py',
   'PYMODULE'),
  ('selenium.webdriver.support.wait',
   '/home/codenginebd/Desktop/ENV/book_rental/lib/python3.5/site-packages/selenium/webdriver/support/wait.py',
   'PYMODULE'),
  ('selenium.webdriver.support.select',
   '/home/codenginebd/Desktop/ENV/book_rental/lib/python3.5/site-packages/selenium/webdriver/support/select.py',
   'PYMODULE'),
  ('selenium.webdriver.safari.webdriver',
   '/home/codenginebd/Desktop/ENV/book_rental/lib/python3.5/site-packages/selenium/webdriver/safari/webdriver.py',
   'PYMODULE'),
  ('selenium.webdriver.safari',
   '/home/codenginebd/Desktop/ENV/book_rental/lib/python3.5/site-packages/selenium/webdriver/safari/__init__.py',
   'PYMODULE'),
  ('selenium.webdriver.safari.service',
   '/home/codenginebd/Desktop/ENV/book_rental/lib/python3.5/site-packages/selenium/webdriver/safari/service.py',
   'PYMODULE'),
  ('selenium.webdriver.opera.webdriver',
   '/home/codenginebd/Desktop/ENV/book_rental/lib/python3.5/site-packages/selenium/webdriver/opera/webdriver.py',
   'PYMODULE'),
  ('selenium.webdriver.opera',
   '/home/codenginebd/Desktop/ENV/book_rental/lib/python3.5/site-packages/selenium/webdriver/opera/__init__.py',
   'PYMODULE'),
  ('selenium.webdriver.opera.options',
   '/home/codenginebd/Desktop/ENV/book_rental/lib/python3.5/site-packages/selenium/webdriver/opera/options.py',
   'PYMODULE'),
  ('selenium.webdriver.edge.webdriver',
   '/home/codenginebd/Desktop/ENV/book_rental/lib/python3.5/site-packages/selenium/webdriver/edge/webdriver.py',
   'PYMODULE'),
  ('selenium.webdriver.edge',
   '/home/codenginebd/Desktop/ENV/book_rental/lib/python3.5/site-packages/selenium/webdriver/edge/__init__.py',
   'PYMODULE'),
  ('selenium.webdriver.edge.service',
   '/home/codenginebd/Desktop/ENV/book_rental/lib/python3.5/site-packages/selenium/webdriver/edge/service.py',
   'PYMODULE'),
  ('selenium.webdriver.ie.webdriver',
   '/home/codenginebd/Desktop/ENV/book_rental/lib/python3.5/site-packages/selenium/webdriver/ie/webdriver.py',
   'PYMODULE'),
  ('selenium.webdriver.ie',
   '/home/codenginebd/Desktop/ENV/book_rental/lib/python3.5/site-packages/selenium/webdriver/ie/__init__.py',
   'PYMODULE'),
  ('selenium.webdriver.ie.options',
   '/home/codenginebd/Desktop/ENV/book_rental/lib/python3.5/site-packages/selenium/webdriver/ie/options.py',
   'PYMODULE'),
  ('selenium.webdriver.ie.service',
   '/home/codenginebd/Desktop/ENV/book_rental/lib/python3.5/site-packages/selenium/webdriver/ie/service.py',
   'PYMODULE'),
  ('selenium.webdriver.chrome.options',
   '/home/codenginebd/Desktop/ENV/book_rental/lib/python3.5/site-packages/selenium/webdriver/chrome/options.py',
   'PYMODULE'),
  ('selenium.webdriver.chrome',
   '/home/codenginebd/Desktop/ENV/book_rental/lib/python3.5/site-packages/selenium/webdriver/chrome/__init__.py',
   'PYMODULE'),
  ('selenium.webdriver.chrome.webdriver',
   '/home/codenginebd/Desktop/ENV/book_rental/lib/python3.5/site-packages/selenium/webdriver/chrome/webdriver.py',
   'PYMODULE'),
  ('selenium.webdriver.chrome.service',
   '/home/codenginebd/Desktop/ENV/book_rental/lib/python3.5/site-packages/selenium/webdriver/chrome/service.py',
   'PYMODULE'),
  ('selenium.webdriver.chrome.remote_connection',
   '/home/codenginebd/Desktop/ENV/book_rental/lib/python3.5/site-packages/selenium/webdriver/chrome/remote_connection.py',
   'PYMODULE'),
  ('selenium.webdriver.firefox.firefox_profile',
   '/home/codenginebd/Desktop/ENV/book_rental/lib/python3.5/site-packages/selenium/webdriver/firefox/firefox_profile.py',
   'PYMODULE'),
  ('selenium.webdriver.firefox',
   '/home/codenginebd/Desktop/ENV/book_rental/lib/python3.5/site-packages/selenium/webdriver/firefox/__init__.py',
   'PYMODULE'),
  ('xml.dom.minidom', '/usr/lib/python3.5/xml/dom/minidom.py', 'PYMODULE'),
  ('xml.dom.pulldom', '/usr/lib/python3.5/xml/dom/pulldom.py', 'PYMODULE'),
  ('xml.dom.expatbuilder',
   '/usr/lib/python3.5/xml/dom/expatbuilder.py',
   'PYMODULE'),
  ('xml.dom.NodeFilter',
   '/usr/lib/python3.5/xml/dom/NodeFilter.py',
   'PYMODULE'),
  ('xml.dom.xmlbuilder',
   '/usr/lib/python3.5/xml/dom/xmlbuilder.py',
   'PYMODULE'),
  ('xml.dom.minicompat',
   '/usr/lib/python3.5/xml/dom/minicompat.py',
   'PYMODULE'),
  ('xml.dom.domreg', '/usr/lib/python3.5/xml/dom/domreg.py', 'PYMODULE'),
  ('xml.dom', '/usr/lib/python3.5/xml/dom/__init__.py', 'PYMODULE'),
  ('selenium.webdriver.firefox.webdriver',
   '/home/codenginebd/Desktop/ENV/book_rental/lib/python3.5/site-packages/selenium/webdriver/firefox/webdriver.py',
   'PYMODULE'),
  ('selenium.webdriver.firefox.webelement',
   '/home/codenginebd/Desktop/ENV/book_rental/lib/python3.5/site-packages/selenium/webdriver/firefox/webelement.py',
   'PYMODULE'),
  ('selenium.webdriver.firefox.service',
   '/home/codenginebd/Desktop/ENV/book_rental/lib/python3.5/site-packages/selenium/webdriver/firefox/service.py',
   'PYMODULE'),
  ('selenium.webdriver.firefox.remote_connection',
   '/home/codenginebd/Desktop/ENV/book_rental/lib/python3.5/site-packages/selenium/webdriver/firefox/remote_connection.py',
   'PYMODULE'),
  ('selenium.webdriver.firefox.options',
   '/home/codenginebd/Desktop/ENV/book_rental/lib/python3.5/site-packages/selenium/webdriver/firefox/options.py',
   'PYMODULE'),
  ('selenium.webdriver.firefox.firefox_binary',
   '/home/codenginebd/Desktop/ENV/book_rental/lib/python3.5/site-packages/selenium/webdriver/firefox/firefox_binary.py',
   'PYMODULE'),
  ('selenium.webdriver.firefox.extension_connection',
   '/home/codenginebd/Desktop/ENV/book_rental/lib/python3.5/site-packages/selenium/webdriver/firefox/extension_connection.py',
   'PYMODULE'),
  ('selenium',
   '/home/codenginebd/Desktop/ENV/book_rental/lib/python3.5/site-packages/selenium/__init__.py',
   'PYMODULE'),
  ('tkinter.messagebox',
   '/usr/lib/python3.5/tkinter/messagebox.py',
   'PYMODULE'),
  ('tkinter.commondialog',
   '/usr/lib/python3.5/tkinter/commondialog.py',
   'PYMODULE'),
  ('tkinter.filedialog',
   '/usr/lib/python3.5/tkinter/filedialog.py',
   'PYMODULE'),
  ('tkinter.dialog', '/usr/lib/python3.5/tkinter/dialog.py', 'PYMODULE'),
  ('tkinter', '/usr/lib/python3.5/tkinter/__init__.py', 'PYMODULE'),
  ('tkinter.constants', '/usr/lib/python3.5/tkinter/constants.py', 'PYMODULE')],
 [('libz.so.1', '/lib/x86_64-linux-gnu/libz.so.1', 'BINARY'),
  ('libexpat.so.1', '/lib/x86_64-linux-gnu/libexpat.so.1', 'BINARY'),
  ('resource',
   '/home/codenginebd/Desktop/ENV/book_rental/lib/python3.5/lib-dynload/resource.cpython-35m-x86_64-linux-gnu.so',
   'EXTENSION'),
  ('_ssl',
   '/home/codenginebd/Desktop/ENV/book_rental/lib/python3.5/lib-dynload/_ssl.cpython-35m-x86_64-linux-gnu.so',
   'EXTENSION'),
  ('_opcode',
   '/home/codenginebd/Desktop/ENV/book_rental/lib/python3.5/lib-dynload/_opcode.cpython-35m-x86_64-linux-gnu.so',
   'EXTENSION'),
  ('readline',
   '/home/codenginebd/Desktop/ENV/book_rental/lib/python3.5/lib-dynload/readline.cpython-35m-x86_64-linux-gnu.so',
   'EXTENSION'),
  ('_ctypes',
   '/home/codenginebd/Desktop/ENV/book_rental/lib/python3.5/lib-dynload/_ctypes.cpython-35m-x86_64-linux-gnu.so',
   'EXTENSION'),
  ('termios',
   '/home/codenginebd/Desktop/ENV/book_rental/lib/python3.5/lib-dynload/termios.cpython-35m-x86_64-linux-gnu.so',
   'EXTENSION'),
  ('_hashlib',
   '/home/codenginebd/Desktop/ENV/book_rental/lib/python3.5/lib-dynload/_hashlib.cpython-35m-x86_64-linux-gnu.so',
   'EXTENSION'),
  ('_lzma',
   '/home/codenginebd/Desktop/ENV/book_rental/lib/python3.5/lib-dynload/_lzma.cpython-35m-x86_64-linux-gnu.so',
   'EXTENSION'),
  ('_codecs_kr',
   '/home/codenginebd/Desktop/ENV/book_rental/lib/python3.5/lib-dynload/_codecs_kr.cpython-35m-x86_64-linux-gnu.so',
   'EXTENSION'),
  ('_codecs_hk',
   '/home/codenginebd/Desktop/ENV/book_rental/lib/python3.5/lib-dynload/_codecs_hk.cpython-35m-x86_64-linux-gnu.so',
   'EXTENSION'),
  ('_codecs_tw',
   '/home/codenginebd/Desktop/ENV/book_rental/lib/python3.5/lib-dynload/_codecs_tw.cpython-35m-x86_64-linux-gnu.so',
   'EXTENSION'),
  ('_codecs_cn',
   '/home/codenginebd/Desktop/ENV/book_rental/lib/python3.5/lib-dynload/_codecs_cn.cpython-35m-x86_64-linux-gnu.so',
   'EXTENSION'),
  ('_bz2',
   '/home/codenginebd/Desktop/ENV/book_rental/lib/python3.5/lib-dynload/_bz2.cpython-35m-x86_64-linux-gnu.so',
   'EXTENSION'),
  ('_codecs_iso2022',
   '/home/codenginebd/Desktop/ENV/book_rental/lib/python3.5/lib-dynload/_codecs_iso2022.cpython-35m-x86_64-linux-gnu.so',
   'EXTENSION'),
  ('_codecs_jp',
   '/home/codenginebd/Desktop/ENV/book_rental/lib/python3.5/lib-dynload/_codecs_jp.cpython-35m-x86_64-linux-gnu.so',
   'EXTENSION'),
  ('_multibytecodec',
   '/home/codenginebd/Desktop/ENV/book_rental/lib/python3.5/lib-dynload/_multibytecodec.cpython-35m-x86_64-linux-gnu.so',
   'EXTENSION'),
  ('_csv',
   '/home/codenginebd/Desktop/ENV/book_rental/lib/python3.5/lib-dynload/_csv.cpython-35m-x86_64-linux-gnu.so',
   'EXTENSION'),
  ('lxml.etree',
   '/home/codenginebd/Desktop/ENV/book_rental/lib/python3.5/site-packages/lxml/etree.cpython-35m-x86_64-linux-gnu.so',
   'EXTENSION'),
  ('lxml._elementpath',
   '/home/codenginebd/Desktop/ENV/book_rental/lib/python3.5/site-packages/lxml/_elementpath.cpython-35m-x86_64-linux-gnu.so',
   'EXTENSION'),
  ('_json',
   '/home/codenginebd/Desktop/ENV/book_rental/lib/python3.5/lib-dynload/_json.cpython-35m-x86_64-linux-gnu.so',
   'EXTENSION'),
  ('_tkinter',
   '/home/codenginebd/Desktop/ENV/book_rental/lib/python3.5/lib-dynload/_tkinter.cpython-35m-x86_64-linux-gnu.so',
   'EXTENSION'),
  ('libssl.so.1.0.0', '/lib/x86_64-linux-gnu/libssl.so.1.0.0', 'BINARY'),
  ('libcrypto.so.1.0.0', '/lib/x86_64-linux-gnu/libcrypto.so.1.0.0', 'BINARY'),
  ('libtinfo.so.5', '/lib/x86_64-linux-gnu/libtinfo.so.5', 'BINARY'),
  ('libreadline.so.6', '/lib/x86_64-linux-gnu/libreadline.so.6', 'BINARY'),
  ('liblzma.so.5', '/lib/x86_64-linux-gnu/liblzma.so.5', 'BINARY'),
  ('libbz2.so.1.0', '/lib/x86_64-linux-gnu/libbz2.so.1.0', 'BINARY'),
  ('libXft.so.2', '/usr/lib/x86_64-linux-gnu/libXft.so.2', 'BINARY'),
  ('libBLT.2.5.so.8.6', '/usr/lib/libBLT.2.5.so.8.6', 'BINARY'),
  ('libXdmcp.so.6', '/usr/lib/x86_64-linux-gnu/libXdmcp.so.6', 'BINARY'),
  ('libX11.so.6', '/usr/lib/x86_64-linux-gnu/libX11.so.6', 'BINARY'),
  ('libfontconfig.so.1',
   '/usr/lib/x86_64-linux-gnu/libfontconfig.so.1',
   'BINARY'),
  ('libXss.so.1', '/usr/lib/x86_64-linux-gnu/libXss.so.1', 'BINARY'),
  ('libXau.so.6', '/usr/lib/x86_64-linux-gnu/libXau.so.6', 'BINARY'),
  ('libXext.so.6', '/usr/lib/x86_64-linux-gnu/libXext.so.6', 'BINARY'),
  ('libXrender.so.1', '/usr/lib/x86_64-linux-gnu/libXrender.so.1', 'BINARY'),
  ('libfreetype.so.6', '/usr/lib/x86_64-linux-gnu/libfreetype.so.6', 'BINARY'),
  ('libtcl8.6.so', '/usr/lib/x86_64-linux-gnu/libtcl8.6.so', 'BINARY'),
  ('libpng12.so.0', '/lib/x86_64-linux-gnu/libpng12.so.0', 'BINARY'),
  ('libtk8.6.so', '/usr/lib/x86_64-linux-gnu/libtk8.6.so', 'BINARY'),
  ('libpython3.5m.so.1.0',
   '/usr/lib/x86_64-linux-gnu/libpython3.5m.so.1.0',
   'BINARY')],
 [],
 [],
 [('base_library.zip',
   '/media/codenginebd/My Works and Stuffs1/Upwork/Alex '
   'Rendson/sexoffender/build/program/base_library.zip',
   'DATA'),
  ('tcl/encoding/cp1251.enc',
   '/usr/share/tcltk/tcl8.6/encoding/cp1251.enc',
   'DATA'),
  ('tcl/msgs/kl_gl.msg', '/usr/share/tcltk/tcl8.6/msgs/kl_gl.msg', 'DATA'),
  ('tcl/encoding/jis0212.enc',
   '/usr/share/tcltk/tcl8.6/encoding/jis0212.enc',
   'DATA'),
  ('tk/ttk/cursors.tcl', '/usr/share/tcltk/tk8.6/ttk/cursors.tcl', 'DATA'),
  ('tcl/msgs/pt.msg', '/usr/share/tcltk/tcl8.6/msgs/pt.msg', 'DATA'),
  ('tcl/opt0.4/optparse.tcl',
   '/usr/share/tcltk/tcl8.6/opt0.4/optparse.tcl',
   'DATA'),
  ('tcl/encoding/iso8859-3.enc',
   '/usr/share/tcltk/tcl8.6/encoding/iso8859-3.enc',
   'DATA'),
  ('tk/scrlbar.tcl', '/usr/share/tcltk/tk8.6/scrlbar.tcl', 'DATA'),
  ('tcl/msgs/en_gb.msg', '/usr/share/tcltk/tcl8.6/msgs/en_gb.msg', 'DATA'),
  ('tk/msgs/pl.msg', '/usr/share/tcltk/tk8.6/msgs/pl.msg', 'DATA'),
  ('tcl/tclAppInit.c', '/usr/share/tcltk/tcl8.6/tclAppInit.c', 'DATA'),
  ('tcl/msgs/uk.msg', '/usr/share/tcltk/tcl8.6/msgs/uk.msg', 'DATA'),
  ('tcl/msgs/en_in.msg', '/usr/share/tcltk/tcl8.6/msgs/en_in.msg', 'DATA'),
  ('tcl/encoding/iso8859-9.enc',
   '/usr/share/tcltk/tcl8.6/encoding/iso8859-9.enc',
   'DATA'),
  ('tcl/msgs/en_be.msg', '/usr/share/tcltk/tcl8.6/msgs/en_be.msg', 'DATA'),
  ('tk/ttk/button.tcl', '/usr/share/tcltk/tk8.6/ttk/button.tcl', 'DATA'),
  ('tcl/msgs/pl.msg', '/usr/share/tcltk/tcl8.6/msgs/pl.msg', 'DATA'),
  ('tcl/encoding/cp860.enc',
   '/usr/share/tcltk/tcl8.6/encoding/cp860.enc',
   'DATA'),
  ('tk/images/tai-ku.gif', '/usr/share/tcltk/tk8.6/images/tai-ku.gif', 'DATA'),
  ('tcl/msgs/en_nz.msg', '/usr/share/tcltk/tcl8.6/msgs/en_nz.msg', 'DATA'),
  ('tcl/encoding/cp865.enc',
   '/usr/share/tcltk/tcl8.6/encoding/cp865.enc',
   'DATA'),
  ('tcl/encoding/cp864.enc',
   '/usr/share/tcltk/tcl8.6/encoding/cp864.enc',
   'DATA'),
  ('tcl/encoding/macRoman.enc',
   '/usr/share/tcltk/tcl8.6/encoding/macRoman.enc',
   'DATA'),
  ('tk/msgs/it.msg', '/usr/share/tcltk/tk8.6/msgs/it.msg', 'DATA'),
  ('tk/ttk/aquaTheme.tcl', '/usr/share/tcltk/tk8.6/ttk/aquaTheme.tcl', 'DATA'),
  ('tcl/encoding/ascii.enc',
   '/usr/share/tcltk/tcl8.6/encoding/ascii.enc',
   'DATA'),
  ('tcl/msgs/sq.msg', '/usr/share/tcltk/tcl8.6/msgs/sq.msg', 'DATA'),
  ('tcl/msgs/zh_hk.msg', '/usr/share/tcltk/tcl8.6/msgs/zh_hk.msg', 'DATA'),
  ('tcl/msgs/de_at.msg', '/usr/share/tcltk/tcl8.6/msgs/de_at.msg', 'DATA'),
  ('tcl/encoding/cp775.enc',
   '/usr/share/tcltk/tcl8.6/encoding/cp775.enc',
   'DATA'),
  ('tcl/msgs/kw_gb.msg', '/usr/share/tcltk/tcl8.6/msgs/kw_gb.msg', 'DATA'),
  ('tk/images/logoLarge.gif',
   '/usr/share/tcltk/tk8.6/images/logoLarge.gif',
   'DATA'),
  ('tk/ttk/defaults.tcl', '/usr/share/tcltk/tk8.6/ttk/defaults.tcl', 'DATA'),
  ('tcl/encoding/cp874.enc',
   '/usr/share/tcltk/tcl8.6/encoding/cp874.enc',
   'DATA'),
  ('tcl/msgs/ms.msg', '/usr/share/tcltk/tcl8.6/msgs/ms.msg', 'DATA'),
  ('tcl/encoding/tis-620.enc',
   '/usr/share/tcltk/tcl8.6/encoding/tis-620.enc',
   'DATA'),
  ('tk/msgs/nl.msg', '/usr/share/tcltk/tk8.6/msgs/nl.msg', 'DATA'),
  ('tcl/msgs/nl_be.msg', '/usr/share/tcltk/tcl8.6/msgs/nl_be.msg', 'DATA'),
  ('tk/palette.tcl', '/usr/share/tcltk/tk8.6/palette.tcl', 'DATA'),
  ('tcl/msgs/sw.msg', '/usr/share/tcltk/tcl8.6/msgs/sw.msg', 'DATA'),
  ('tcl/package.tcl', '/usr/share/tcltk/tcl8.6/package.tcl', 'DATA'),
  ('tcl/encoding/ksc5601.enc',
   '/usr/share/tcltk/tcl8.6/encoding/ksc5601.enc',
   'DATA'),
  ('tcl/msgs/hi.msg', '/usr/share/tcltk/tcl8.6/msgs/hi.msg', 'DATA'),
  ('tcl/msgs/ar_lb.msg', '/usr/share/tcltk/tcl8.6/msgs/ar_lb.msg', 'DATA'),
  ('tk/msgs/cs.msg', '/usr/share/tcltk/tk8.6/msgs/cs.msg', 'DATA'),
  ('tcl/encoding/iso8859-8.enc',
   '/usr/share/tcltk/tcl8.6/encoding/iso8859-8.enc',
   'DATA'),
  ('selenium/webdriver/remote/getAttribute.js',
   '/home/codenginebd/Desktop/ENV/book_rental/lib/python3.5/site-packages/selenium/webdriver/remote/getAttribute.js',
   'DATA'),
  ('tcl/encoding/macGreek.enc',
   '/usr/share/tcltk/tcl8.6/encoding/macGreek.enc',
   'DATA'),
  ('tk/images/pwrdLogo.eps',
   '/usr/share/tcltk/tk8.6/images/pwrdLogo.eps',
   'DATA'),
  ('tcl/encoding/macCentEuro.enc',
   '/usr/share/tcltk/tcl8.6/encoding/macCentEuro.enc',
   'DATA'),
  ('tcl/encoding/shiftjis.enc',
   '/usr/share/tcltk/tcl8.6/encoding/shiftjis.enc',
   'DATA'),
  ('tcl/msgs/es_py.msg', '/usr/share/tcltk/tcl8.6/msgs/es_py.msg', 'DATA'),
  ('tcl/msgs/es_ni.msg', '/usr/share/tcltk/tcl8.6/msgs/es_ni.msg', 'DATA'),
  ('tcl/msgs/kw.msg', '/usr/share/tcltk/tcl8.6/msgs/kw.msg', 'DATA'),
  ('tcl/msgs/es_bo.msg', '/usr/share/tcltk/tcl8.6/msgs/es_bo.msg', 'DATA'),
  ('tcl/msgs/gl_es.msg', '/usr/share/tcltk/tcl8.6/msgs/gl_es.msg', 'DATA'),
  ('tcl/encoding/iso2022.enc',
   '/usr/share/tcltk/tcl8.6/encoding/iso2022.enc',
   'DATA'),
  ('tcl/encoding/cp1258.enc',
   '/usr/share/tcltk/tcl8.6/encoding/cp1258.enc',
   'DATA'),
  ('tcl/encoding/iso8859-10.enc',
   '/usr/share/tcltk/tcl8.6/encoding/iso8859-10.enc',
   'DATA'),
  ('tcl/msgs/id_id.msg', '/usr/share/tcltk/tcl8.6/msgs/id_id.msg', 'DATA'),
  ('tk/images/pwrdLogo100.gif',
   '/usr/share/tcltk/tk8.6/images/pwrdLogo100.gif',
   'DATA'),
  ('tcl/encoding/macCyrillic.enc',
   '/usr/share/tcltk/tcl8.6/encoding/macCyrillic.enc',
   'DATA'),
  ('tcl/msgs/en_za.msg', '/usr/share/tcltk/tcl8.6/msgs/en_za.msg', 'DATA'),
  ('tcl/encoding/cp1255.enc',
   '/usr/share/tcltk/tcl8.6/encoding/cp1255.enc',
   'DATA'),
  ('tcl/msgs/kok.msg', '/usr/share/tcltk/tcl8.6/msgs/kok.msg', 'DATA'),
  ('tk/focus.tcl', '/usr/share/tcltk/tk8.6/focus.tcl', 'DATA'),
  ('tcl/msgs/zh_cn.msg', '/usr/share/tcltk/tcl8.6/msgs/zh_cn.msg', 'DATA'),
  ('tcl/msgs/bn_in.msg', '/usr/share/tcltk/tcl8.6/msgs/bn_in.msg', 'DATA'),
  ('tk/bgerror.tcl', '/usr/share/tcltk/tk8.6/bgerror.tcl', 'DATA'),
  ('tk/safetk.tcl', '/usr/share/tcltk/tk8.6/safetk.tcl', 'DATA'),
  ('tcl/encoding/cp1256.enc',
   '/usr/share/tcltk/tcl8.6/encoding/cp1256.enc',
   'DATA'),
  ('tcl/msgs/fo_fo.msg', '/usr/share/tcltk/tcl8.6/msgs/fo_fo.msg', 'DATA'),
  ('tcl/encoding/cp850.enc',
   '/usr/share/tcltk/tcl8.6/encoding/cp850.enc',
   'DATA'),
  ('tcl/msgs/fo.msg', '/usr/share/tcltk/tcl8.6/msgs/fo.msg', 'DATA'),
  ('selenium/webdriver/firefox/webdriver_prefs.json',
   '/home/codenginebd/Desktop/ENV/book_rental/lib/python3.5/site-packages/selenium/webdriver/firefox/webdriver_prefs.json',
   'DATA'),
  ('tk/msgs/pt.msg', '/usr/share/tcltk/tk8.6/msgs/pt.msg', 'DATA'),
  ('tcl/msgs/fi.msg', '/usr/share/tcltk/tcl8.6/msgs/fi.msg', 'DATA'),
  ('tcl/auto.tcl', '/usr/share/tcltk/tcl8.6/auto.tcl', 'DATA'),
  ('tcl/tcl8/msgcat-1.6.0.tm',
   '/usr/share/tcltk/tcl8.6/tcl8/msgcat-1.6.0.tm',
   'DATA'),
  ('tk/ttk/scale.tcl', '/usr/share/tcltk/tk8.6/ttk/scale.tcl', 'DATA'),
  ('tk/ttk/utils.tcl', '/usr/share/tcltk/tk8.6/ttk/utils.tcl', 'DATA'),
  ('tcl/msgs/kl.msg', '/usr/share/tcltk/tcl8.6/msgs/kl.msg', 'DATA'),
  ('tk/msgs/en_gb.msg', '/usr/share/tcltk/tk8.6/msgs/en_gb.msg', 'DATA'),
  ('tcl/encoding/cp737.enc',
   '/usr/share/tcltk/tcl8.6/encoding/cp737.enc',
   'DATA'),
  ('tcl/encoding/gb12345.enc',
   '/usr/share/tcltk/tcl8.6/encoding/gb12345.enc',
   'DATA'),
  ('tk/ttk/panedwindow.tcl',
   '/usr/share/tcltk/tk8.6/ttk/panedwindow.tcl',
   'DATA'),
  ('tcl/encoding/cp869.enc',
   '/usr/share/tcltk/tcl8.6/encoding/cp869.enc',
   'DATA'),
  ('tk/icons.tcl', '/usr/share/tcltk/tk8.6/icons.tcl', 'DATA'),
  ('tcl/encoding/cp437.enc',
   '/usr/share/tcltk/tcl8.6/encoding/cp437.enc',
   'DATA'),
  ('tcl/msgs/nb.msg', '/usr/share/tcltk/tcl8.6/msgs/nb.msg', 'DATA'),
  ('tcl/msgs/bn.msg', '/usr/share/tcltk/tcl8.6/msgs/bn.msg', 'DATA'),
  ('tcl/encoding/macJapan.enc',
   '/usr/share/tcltk/tcl8.6/encoding/macJapan.enc',
   'DATA'),
  ('tcl/encoding/iso8859-13.enc',
   '/usr/share/tcltk/tcl8.6/encoding/iso8859-13.enc',
   'DATA'),
  ('tcl/msgs/mt.msg', '/usr/share/tcltk/tcl8.6/msgs/mt.msg', 'DATA'),
  ('tcl/encoding/macTurkish.enc',
   '/usr/share/tcltk/tcl8.6/encoding/macTurkish.enc',
   'DATA'),
  ('tcl/http1.0/http.tcl', '/usr/share/tcltk/tcl8.6/http1.0/http.tcl', 'DATA'),
  ('tcl/encoding/macCroatian.enc',
   '/usr/share/tcltk/tcl8.6/encoding/macCroatian.enc',
   'DATA'),
  ('tcl/encoding/gb2312-raw.enc',
   '/usr/share/tcltk/tcl8.6/encoding/gb2312-raw.enc',
   'DATA'),
  ('tk/ttk/clamTheme.tcl', '/usr/share/tcltk/tk8.6/ttk/clamTheme.tcl', 'DATA'),
  ('tcl/msgs/ko_kr.msg', '/usr/share/tcltk/tcl8.6/msgs/ko_kr.msg', 'DATA'),
  ('tk/images/logo64.gif', '/usr/share/tcltk/tk8.6/images/logo64.gif', 'DATA'),
  ('tk/images/pwrdLogo75.gif',
   '/usr/share/tcltk/tk8.6/images/pwrdLogo75.gif',
   'DATA'),
  ('tcl/msgs/ms_my.msg', '/usr/share/tcltk/tcl8.6/msgs/ms_my.msg', 'DATA'),
  ('tcl/msgs/ru_ua.msg', '/usr/share/tcltk/tcl8.6/msgs/ru_ua.msg', 'DATA'),
  ('tcl/encoding/koi8-u.enc',
   '/usr/share/tcltk/tcl8.6/encoding/koi8-u.enc',
   'DATA'),
  ('tk/fontchooser.tcl', '/usr/share/tcltk/tk8.6/fontchooser.tcl', 'DATA'),
  ('tk/ttk/ttk.tcl', '/usr/share/tcltk/tk8.6/ttk/ttk.tcl', 'DATA'),
  ('tcl/msgs/cs.msg', '/usr/share/tcltk/tcl8.6/msgs/cs.msg', 'DATA'),
  ('tk/obsolete.tcl', '/usr/share/tcltk/tk8.6/obsolete.tcl', 'DATA'),
  ('tcl/encoding/macUkraine.enc',
   '/usr/share/tcltk/tcl8.6/encoding/macUkraine.enc',
   'DATA'),
  ('tk/tearoff.tcl', '/usr/share/tcltk/tk8.6/tearoff.tcl', 'DATA'),
  ('tcl/msgs/bg.msg', '/usr/share/tcltk/tcl8.6/msgs/bg.msg', 'DATA'),
  ('tcl/msgs/es_co.msg', '/usr/share/tcltk/tcl8.6/msgs/es_co.msg', 'DATA'),
  ('tcl/msgs/hu.msg', '/usr/share/tcltk/tcl8.6/msgs/hu.msg', 'DATA'),
  ('tcl/encoding/iso8859-14.enc',
   '/usr/share/tcltk/tcl8.6/encoding/iso8859-14.enc',
   'DATA'),
  ('tcl/init.tcl', '/usr/share/tcltk/tcl8.6/init.tcl', 'DATA'),
  ('tk/ttk/fonts.tcl', '/usr/share/tcltk/tk8.6/ttk/fonts.tcl', 'DATA'),
  ('tk/msgs/es.msg', '/usr/share/tcltk/tk8.6/msgs/es.msg', 'DATA'),
  ('tcl/msgs/gl.msg', '/usr/share/tcltk/tcl8.6/msgs/gl.msg', 'DATA'),
  ('tcl/msgs/es_cl.msg', '/usr/share/tcltk/tcl8.6/msgs/es_cl.msg', 'DATA'),
  ('tcl/encoding/cp936.enc',
   '/usr/share/tcltk/tcl8.6/encoding/cp936.enc',
   'DATA'),
  ('tcl/msgs/en_zw.msg', '/usr/share/tcltk/tcl8.6/msgs/en_zw.msg', 'DATA'),
  ('tk/ttk/menubutton.tcl',
   '/usr/share/tcltk/tk8.6/ttk/menubutton.tcl',
   'DATA'),
  ('selenium/webdriver/firefox/webdriver.xpi',
   '/home/codenginebd/Desktop/ENV/book_rental/lib/python3.5/site-packages/selenium/webdriver/firefox/webdriver.xpi',
   'DATA'),
  ('tcl/msgs/sk.msg', '/usr/share/tcltk/tcl8.6/msgs/sk.msg', 'DATA'),
  ('tcl/encoding/cp949.enc',
   '/usr/share/tcltk/tcl8.6/encoding/cp949.enc',
   'DATA'),
  ('tcl/encoding/cp852.enc',
   '/usr/share/tcltk/tcl8.6/encoding/cp852.enc',
   'DATA'),
  ('tk/images/pwrdLogo200.gif',
   '/usr/share/tcltk/tk8.6/images/pwrdLogo200.gif',
   'DATA'),
  ('tcl/msgs/de.msg', '/usr/share/tcltk/tcl8.6/msgs/de.msg', 'DATA'),
  ('tk/ttk/treeview.tcl', '/usr/share/tcltk/tk8.6/ttk/treeview.tcl', 'DATA'),
  ('tcl/encoding/cp1252.enc',
   '/usr/share/tcltk/tcl8.6/encoding/cp1252.enc',
   'DATA'),
  ('tcl/encoding/macIceland.enc',
   '/usr/share/tcltk/tcl8.6/encoding/macIceland.enc',
   'DATA'),
  ('tcl/msgs/fr_ch.msg', '/usr/share/tcltk/tcl8.6/msgs/fr_ch.msg', 'DATA'),
  ('tcl/encoding/cp1254.enc',
   '/usr/share/tcltk/tcl8.6/encoding/cp1254.enc',
   'DATA'),
  ('tcl/encoding/symbol.enc',
   '/usr/share/tcltk/tcl8.6/encoding/symbol.enc',
   'DATA'),
  ('tcl/encoding/cp1250.enc',
   '/usr/share/tcltk/tcl8.6/encoding/cp1250.enc',
   'DATA'),
  ('tk/comdlg.tcl', '/usr/share/tcltk/tk8.6/comdlg.tcl', 'DATA'),
  ('tcl/msgs/es_uy.msg', '/usr/share/tcltk/tcl8.6/msgs/es_uy.msg', 'DATA'),
  ('selenium/webdriver/remote/isDisplayed.js',
   '/home/codenginebd/Desktop/ENV/book_rental/lib/python3.5/site-packages/selenium/webdriver/remote/isDisplayed.js',
   'DATA'),
  ('tk/clrpick.tcl', '/usr/share/tcltk/tk8.6/clrpick.tcl', 'DATA'),
  ('tk/text.tcl', '/usr/share/tcltk/tk8.6/text.tcl', 'DATA'),
  ('tcl/encoding/iso8859-5.enc',
   '/usr/share/tcltk/tcl8.6/encoding/iso8859-5.enc',
   'DATA'),
  ('tcl/msgs/sv.msg', '/usr/share/tcltk/tcl8.6/msgs/sv.msg', 'DATA'),
  ('tk/images/logo100.gif',
   '/usr/share/tcltk/tk8.6/images/logo100.gif',
   'DATA'),
  ('tcl/msgs/be.msg', '/usr/share/tcltk/tcl8.6/msgs/be.msg', 'DATA'),
  ('tcl/msgs/en_ie.msg', '/usr/share/tcltk/tcl8.6/msgs/en_ie.msg', 'DATA'),
  ('tcl/encoding/cp932.enc',
   '/usr/share/tcltk/tcl8.6/encoding/cp932.enc',
   'DATA'),
  ('tcl/msgs/sl.msg', '/usr/share/tcltk/tcl8.6/msgs/sl.msg', 'DATA'),
  ('tcl/history.tcl', '/usr/share/tcltk/tcl8.6/history.tcl', 'DATA'),
  ('tcl/msgs/en_ca.msg', '/usr/share/tcltk/tcl8.6/msgs/en_ca.msg', 'DATA'),
  ('tcl/encoding/euc-kr.enc',
   '/usr/share/tcltk/tcl8.6/encoding/euc-kr.enc',
   'DATA'),
  ('tcl/msgs/mr.msg', '/usr/share/tcltk/tcl8.6/msgs/mr.msg', 'DATA'),
  ('tk/ttk/notebook.tcl', '/usr/share/tcltk/tk8.6/ttk/notebook.tcl', 'DATA'),
  ('tcl/msgs/es_sv.msg', '/usr/share/tcltk/tcl8.6/msgs/es_sv.msg', 'DATA'),
  ('tcl/encoding/big5.enc',
   '/usr/share/tcltk/tcl8.6/encoding/big5.enc',
   'DATA'),
  ('tk/images/pwrdLogo175.gif',
   '/usr/share/tcltk/tk8.6/images/pwrdLogo175.gif',
   'DATA'),
  ('tcl/msgs/eo.msg', '/usr/share/tcltk/tcl8.6/msgs/eo.msg', 'DATA'),
  ('tcl/tclIndex', '/usr/share/tcltk/tcl8.6/tclIndex', 'DATA'),
  ('tcl/msgs/el.msg', '/usr/share/tcltk/tcl8.6/msgs/el.msg', 'DATA'),
  ('tcl/msgs/is.msg', '/usr/share/tcltk/tcl8.6/msgs/is.msg', 'DATA'),
  ('tcl/msgs/et.msg', '/usr/share/tcltk/tcl8.6/msgs/et.msg', 'DATA'),
  ('tcl/msgs/te.msg', '/usr/share/tcltk/tcl8.6/msgs/te.msg', 'DATA'),
  ('tcl/encoding/iso8859-16.enc',
   '/usr/share/tcltk/tcl8.6/encoding/iso8859-16.enc',
   'DATA'),
  ('tk/optMenu.tcl', '/usr/share/tcltk/tk8.6/optMenu.tcl', 'DATA'),
  ('tcl/msgs/ja.msg', '/usr/share/tcltk/tcl8.6/msgs/ja.msg', 'DATA'),
  ('tcl/msgs/eu.msg', '/usr/share/tcltk/tcl8.6/msgs/eu.msg', 'DATA'),
  ('tk/ttk/winTheme.tcl', '/usr/share/tcltk/tk8.6/ttk/winTheme.tcl', 'DATA'),
  ('tk/unsupported.tcl', '/usr/share/tcltk/tk8.6/unsupported.tcl', 'DATA'),
  ('tcl/msgs/he.msg', '/usr/share/tcltk/tcl8.6/msgs/he.msg', 'DATA'),
  ('tcl/msgs/ar.msg', '/usr/share/tcltk/tcl8.6/msgs/ar.msg', 'DATA'),
  ('tk/menu.tcl', '/usr/share/tcltk/tk8.6/menu.tcl', 'DATA'),
  ('tcl/msgs/ga_ie.msg', '/usr/share/tcltk/tcl8.6/msgs/ga_ie.msg', 'DATA'),
  ('tcl/encoding/jis0201.enc',
   '/usr/share/tcltk/tcl8.6/encoding/jis0201.enc',
   'DATA'),
  ('tcl/encoding/cp863.enc',
   '/usr/share/tcltk/tcl8.6/encoding/cp863.enc',
   'DATA'),
  ('tk/ttk/vistaTheme.tcl',
   '/usr/share/tcltk/tk8.6/ttk/vistaTheme.tcl',
   'DATA'),
  ('tk/msgs/eo.msg', '/usr/share/tcltk/tk8.6/msgs/eo.msg', 'DATA'),
  ('tk/ttk/spinbox.tcl', '/usr/share/tcltk/tk8.6/ttk/spinbox.tcl', 'DATA'),
  ('tcl/encoding/macThai.enc',
   '/usr/share/tcltk/tcl8.6/encoding/macThai.enc',
   'DATA'),
  ('tcl/encoding/iso8859-15.enc',
   '/usr/share/tcltk/tcl8.6/encoding/iso8859-15.enc',
   'DATA'),
  ('tcl/msgs/es_pa.msg', '/usr/share/tcltk/tcl8.6/msgs/es_pa.msg', 'DATA'),
  ('tk/ttk/combobox.tcl', '/usr/share/tcltk/tk8.6/ttk/combobox.tcl', 'DATA'),
  ('tcl/msgs/pt_br.msg', '/usr/share/tcltk/tcl8.6/msgs/pt_br.msg', 'DATA'),
  ('tcl/encoding/cp866.enc',
   '/usr/share/tcltk/tcl8.6/encoding/cp866.enc',
   'DATA'),
  ('tk/console.tcl', '/usr/share/tcltk/tk8.6/console.tcl', 'DATA'),
  ('tcl/msgs/eu_es.msg', '/usr/share/tcltk/tcl8.6/msgs/eu_es.msg', 'DATA'),
  ('tcl/encoding/iso8859-2.enc',
   '/usr/share/tcltk/tcl8.6/encoding/iso8859-2.enc',
   'DATA'),
  ('tcl/msgs/zh_sg.msg', '/usr/share/tcltk/tcl8.6/msgs/zh_sg.msg', 'DATA'),
  ('tcl/encoding/cp862.enc',
   '/usr/share/tcltk/tcl8.6/encoding/cp862.enc',
   'DATA'),
  ('tk/msgs/da.msg', '/usr/share/tcltk/tk8.6/msgs/da.msg', 'DATA'),
  ('tcl/msgs/es_ar.msg', '/usr/share/tcltk/tcl8.6/msgs/es_ar.msg', 'DATA'),
  ('tcl/encoding/koi8-r.enc',
   '/usr/share/tcltk/tcl8.6/encoding/koi8-r.enc',
   'DATA'),
  ('tk/ttk/xpTheme.tcl', '/usr/share/tcltk/tk8.6/ttk/xpTheme.tcl', 'DATA'),
  ('tk/scale.tcl', '/usr/share/tcltk/tk8.6/scale.tcl', 'DATA'),
  ('tcl/encoding/euc-cn.enc',
   '/usr/share/tcltk/tcl8.6/encoding/euc-cn.enc',
   'DATA'),
  ('tcl/msgs/ar_jo.msg', '/usr/share/tcltk/tcl8.6/msgs/ar_jo.msg', 'DATA'),
  ('tcl/safe.tcl', '/usr/share/tcltk/tcl8.6/safe.tcl', 'DATA'),
  ('tcl/tcl8/platform/shell-1.1.4.tm',
   '/usr/share/tcltk/tcl8.6/tcl8/platform/shell-1.1.4.tm',
   'DATA'),
  ('tk/images/logoMed.gif',
   '/usr/share/tcltk/tk8.6/images/logoMed.gif',
   'DATA'),
  ('tcl/encoding/ebcdic.enc',
   '/usr/share/tcltk/tcl8.6/encoding/ebcdic.enc',
   'DATA'),
  ('tk/msgs/en.msg', '/usr/share/tcltk/tk8.6/msgs/en.msg', 'DATA'),
  ('tcl/encoding/cp1253.enc',
   '/usr/share/tcltk/tcl8.6/encoding/cp1253.enc',
   'DATA'),
  ('tk/msgs/hu.msg', '/usr/share/tcltk/tk8.6/msgs/hu.msg', 'DATA'),
  ('tk/images/logo.eps', '/usr/share/tcltk/tk8.6/images/logo.eps', 'DATA'),
  ('tcl/msgs/fa_in.msg', '/usr/share/tcltk/tcl8.6/msgs/fa_in.msg', 'DATA'),
  ('tcl/msgs/ca.msg', '/usr/share/tcltk/tcl8.6/msgs/ca.msg', 'DATA'),
  ('tcl/encoding/dingbats.enc',
   '/usr/share/tcltk/tcl8.6/encoding/dingbats.enc',
   'DATA'),
  ('tk/dialog.tcl', '/usr/share/tcltk/tk8.6/dialog.tcl', 'DATA'),
  ('tcl/tcl8/tcltest-2.3.8.tm',
   '/usr/share/tcltk/tcl8.6/tcl8/tcltest-2.3.8.tm',
   'DATA'),
  ('tcl/msgs/de_be.msg', '/usr/share/tcltk/tcl8.6/msgs/de_be.msg', 'DATA'),
  ('tk/images/README', '/usr/share/tcltk/tk8.6/images/README', 'DATA'),
  ('tcl/msgs/sh.msg', '/usr/share/tcltk/tcl8.6/msgs/sh.msg', 'DATA'),
  ('tcl/msgs/te_in.msg', '/usr/share/tcltk/tcl8.6/msgs/te_in.msg', 'DATA'),
  ('tk/button.tcl', '/usr/share/tcltk/tk8.6/button.tcl', 'DATA'),
  ('tcl/msgs/nl.msg', '/usr/share/tcltk/tcl8.6/msgs/nl.msg', 'DATA'),
  ('tcl/msgs/es_ve.msg', '/usr/share/tcltk/tcl8.6/msgs/es_ve.msg', 'DATA'),
  ('tcl/msgs/es_ec.msg', '/usr/share/tcltk/tcl8.6/msgs/es_ec.msg', 'DATA'),
  ('tcl/tcl8/http-2.8.9.tm',
   '/usr/share/tcltk/tcl8.6/tcl8/http-2.8.9.tm',
   'DATA'),
  ('tcl/parray.tcl', '/usr/share/tcltk/tcl8.6/parray.tcl', 'DATA'),
  ('tcl/encoding/cp1257.enc',
   '/usr/share/tcltk/tcl8.6/encoding/cp1257.enc',
   'DATA'),
  ('tcl/msgs/ar_sy.msg', '/usr/share/tcltk/tcl8.6/msgs/ar_sy.msg', 'DATA'),
  ('tcl/msgs/id.msg', '/usr/share/tcltk/tcl8.6/msgs/id.msg', 'DATA'),
  ('tk/megawidget.tcl', '/usr/share/tcltk/tk8.6/megawidget.tcl', 'DATA'),
  ('selenium/webdriver/chrome/chromedriver',
   '/home/codenginebd/Desktop/ENV/book_rental/lib/python3.5/site-packages/selenium/webdriver/chrome/chromedriver',
   'DATA'),
  ('tcl/msgs/ta.msg', '/usr/share/tcltk/tcl8.6/msgs/ta.msg', 'DATA'),
  ('tcl/msgs/sr.msg', '/usr/share/tcltk/tcl8.6/msgs/sr.msg', 'DATA'),
  ('tcl/encoding/gb1988.enc',
   '/usr/share/tcltk/tcl8.6/encoding/gb1988.enc',
   'DATA'),
  ('tk/ttk/scrollbar.tcl', '/usr/share/tcltk/tk8.6/ttk/scrollbar.tcl', 'DATA'),
  ('tcl/msgs/hi_in.msg', '/usr/share/tcltk/tcl8.6/msgs/hi_in.msg', 'DATA'),
  ('tcl/encoding/cp855.enc',
   '/usr/share/tcltk/tcl8.6/encoding/cp855.enc',
   'DATA'),
  ('tcl/msgs/en_ph.msg', '/usr/share/tcltk/tcl8.6/msgs/en_ph.msg', 'DATA'),
  ('tcl/msgs/gv_gb.msg', '/usr/share/tcltk/tcl8.6/msgs/gv_gb.msg', 'DATA'),
  ('tcl/msgs/es_hn.msg', '/usr/share/tcltk/tcl8.6/msgs/es_hn.msg', 'DATA'),
  ('tcl/encoding/iso2022-jp.enc',
   '/usr/share/tcltk/tcl8.6/encoding/iso2022-jp.enc',
   'DATA'),
  ('tcl/encoding/iso8859-7.enc',
   '/usr/share/tcltk/tcl8.6/encoding/iso8859-7.enc',
   'DATA'),
  ('tk/tkAppInit.c', '/usr/share/tcltk/tk8.6/tkAppInit.c', 'DATA'),
  ('tcl/msgs/es_do.msg', '/usr/share/tcltk/tcl8.6/msgs/es_do.msg', 'DATA'),
  ('tcl/msgs/gv.msg', '/usr/share/tcltk/tcl8.6/msgs/gv.msg', 'DATA'),
  ('tcl/msgs/ro.msg', '/usr/share/tcltk/tcl8.6/msgs/ro.msg', 'DATA'),
  ('tk/spinbox.tcl', '/usr/share/tcltk/tk8.6/spinbox.tcl', 'DATA'),
  ('tk/ttk/classicTheme.tcl',
   '/usr/share/tcltk/tk8.6/ttk/classicTheme.tcl',
   'DATA'),
  ('tcl/msgs/es.msg', '/usr/share/tcltk/tcl8.6/msgs/es.msg', 'DATA'),
  ('tcl/encoding/iso2022-kr.enc',
   '/usr/share/tcltk/tcl8.6/encoding/iso2022-kr.enc',
   'DATA'),
  ('tcl/encoding/macRomania.enc',
   '/usr/share/tcltk/tcl8.6/encoding/macRomania.enc',
   'DATA'),
  ('tk/mkpsenc.tcl', '/usr/share/tcltk/tk8.6/mkpsenc.tcl', 'DATA'),
  ('tk/tclIndex', '/usr/share/tcltk/tk8.6/tclIndex', 'DATA'),
  ('tk/msgs/el.msg', '/usr/share/tcltk/tk8.6/msgs/el.msg', 'DATA'),
  ('tcl/msgs/ga.msg', '/usr/share/tcltk/tcl8.6/msgs/ga.msg', 'DATA'),
  ('tcl/tm.tcl', '/usr/share/tcltk/tcl8.6/tm.tcl', 'DATA'),
  ('tcl/msgs/es_pr.msg', '/usr/share/tcltk/tcl8.6/msgs/es_pr.msg', 'DATA'),
  ('tcl/msgs/hr.msg', '/usr/share/tcltk/tcl8.6/msgs/hr.msg', 'DATA'),
  ('tcl/encoding/cp857.enc',
   '/usr/share/tcltk/tcl8.6/encoding/cp857.enc',
   'DATA'),
  ('tcl/msgs/af.msg', '/usr/share/tcltk/tcl8.6/msgs/af.msg', 'DATA'),
  ('tk/iconlist.tcl', '/usr/share/tcltk/tk8.6/iconlist.tcl', 'DATA'),
  ('tcl/encoding/jis0208.enc',
   '/usr/share/tcltk/tcl8.6/encoding/jis0208.enc',
   'DATA'),
  ('tk/tkfbox.tcl', '/usr/share/tcltk/tk8.6/tkfbox.tcl', 'DATA'),
  ('tk/msgs/sv.msg', '/usr/share/tcltk/tk8.6/msgs/sv.msg', 'DATA'),
  ('tcl/encoding/iso8859-1.enc',
   '/usr/share/tcltk/tcl8.6/encoding/iso8859-1.enc',
   'DATA'),
  ('tk/entry.tcl', '/usr/share/tcltk/tk8.6/entry.tcl', 'DATA'),
  ('tcl/encoding/euc-jp.enc',
   '/usr/share/tcltk/tcl8.6/encoding/euc-jp.enc',
   'DATA'),
  ('tcl/msgs/es_pe.msg', '/usr/share/tcltk/tcl8.6/msgs/es_pe.msg', 'DATA'),
  ('tcl/msgs/af_za.msg', '/usr/share/tcltk/tcl8.6/msgs/af_za.msg', 'DATA'),
  ('tcl/msgs/da.msg', '/usr/share/tcltk/tcl8.6/msgs/da.msg', 'DATA'),
  ('tcl/msgs/es_cr.msg', '/usr/share/tcltk/tcl8.6/msgs/es_cr.msg', 'DATA'),
  ('tk/msgbox.tcl', '/usr/share/tcltk/tk8.6/msgbox.tcl', 'DATA'),
  ('tcl/http1.0/pkgIndex.tcl',
   '/usr/share/tcltk/tcl8.6/http1.0/pkgIndex.tcl',
   'DATA'),
  ('tcl/encoding/gb2312.enc',
   '/usr/share/tcltk/tcl8.6/encoding/gb2312.enc',
   'DATA'),
  ('tk/msgs/ru.msg', '/usr/share/tcltk/tk8.6/msgs/ru.msg', 'DATA'),
  ('tcl/msgs/fa_ir.msg', '/usr/share/tcltk/tcl8.6/msgs/fa_ir.msg', 'DATA'),
  ('tcl/tcl8/platform-1.0.14.tm',
   '/usr/share/tcltk/tcl8.6/tcl8/platform-1.0.14.tm',
   'DATA'),
  ('tcl/msgs/ta_in.msg', '/usr/share/tcltk/tcl8.6/msgs/ta_in.msg', 'DATA'),
  ('tk/images/pwrdLogo150.gif',
   '/usr/share/tcltk/tk8.6/images/pwrdLogo150.gif',
   'DATA'),
  ('tk/xmfbox.tcl', '/usr/share/tcltk/tk8.6/xmfbox.tcl', 'DATA'),
  ('tcl/word.tcl', '/usr/share/tcltk/tcl8.6/word.tcl', 'DATA'),
  ('tk/ttk/entry.tcl', '/usr/share/tcltk/tk8.6/ttk/entry.tcl', 'DATA'),
  ('tcl/msgs/it.msg', '/usr/share/tcltk/tcl8.6/msgs/it.msg', 'DATA'),
  ('tcl/msgs/kok_in.msg', '/usr/share/tcltk/tcl8.6/msgs/kok_in.msg', 'DATA'),
  ('tcl/opt0.4/pkgIndex.tcl',
   '/usr/share/tcltk/tcl8.6/opt0.4/pkgIndex.tcl',
   'DATA'),
  ('tcl/msgs/ru.msg', '/usr/share/tcltk/tcl8.6/msgs/ru.msg', 'DATA'),
  ('tcl/msgs/mr_in.msg', '/usr/share/tcltk/tcl8.6/msgs/mr_in.msg', 'DATA'),
  ('tcl/msgs/zh.msg', '/usr/share/tcltk/tcl8.6/msgs/zh.msg', 'DATA'),
  ('tk/choosedir.tcl', '/usr/share/tcltk/tk8.6/choosedir.tcl', 'DATA'),
  ('tk/ttk/sizegrip.tcl', '/usr/share/tcltk/tk8.6/ttk/sizegrip.tcl', 'DATA'),
  ('tk/listbox.tcl', '/usr/share/tcltk/tk8.6/listbox.tcl', 'DATA'),
  ('tcl/encoding/iso8859-6.enc',
   '/usr/share/tcltk/tcl8.6/encoding/iso8859-6.enc',
   'DATA'),
  ('tk/tk.tcl', '/usr/share/tcltk/tk8.6/tk.tcl', 'DATA'),
  ('tcl/msgs/lv.msg', '/usr/share/tcltk/tcl8.6/msgs/lv.msg', 'DATA'),
  ('tcl/msgs/fr.msg', '/usr/share/tcltk/tcl8.6/msgs/fr.msg', 'DATA'),
  ('tcl/msgs/en_bw.msg', '/usr/share/tcltk/tcl8.6/msgs/en_bw.msg', 'DATA'),
  ('tcl/encoding/cp950.enc',
   '/usr/share/tcltk/tcl8.6/encoding/cp950.enc',
   'DATA'),
  ('tcl/msgs/es_mx.msg', '/usr/share/tcltk/tcl8.6/msgs/es_mx.msg', 'DATA'),
  ('tcl/msgs/nn.msg', '/usr/share/tcltk/tcl8.6/msgs/nn.msg', 'DATA'),
  ('tcl/msgs/ar_in.msg', '/usr/share/tcltk/tcl8.6/msgs/ar_in.msg', 'DATA'),
  ('tcl/msgs/th.msg', '/usr/share/tcltk/tcl8.6/msgs/th.msg', 'DATA'),
  ('tcl/msgs/ko.msg', '/usr/share/tcltk/tcl8.6/msgs/ko.msg', 'DATA'),
  ('tcl/clock.tcl', '/usr/share/tcltk/tcl8.6/clock.tcl', 'DATA'),
  ('tcl/msgs/es_gt.msg', '/usr/share/tcltk/tcl8.6/msgs/es_gt.msg', 'DATA'),
  ('tk/msgs/fr.msg', '/usr/share/tcltk/tk8.6/msgs/fr.msg', 'DATA'),
  ('tcl/msgs/zh_tw.msg', '/usr/share/tcltk/tcl8.6/msgs/zh_tw.msg', 'DATA'),
  ('tcl/msgs/en_au.msg', '/usr/share/tcltk/tcl8.6/msgs/en_au.msg', 'DATA'),
  ('tcl/encoding/iso8859-4.enc',
   '/usr/share/tcltk/tcl8.6/encoding/iso8859-4.enc',
   'DATA'),
  ('tk/msgs/de.msg', '/usr/share/tcltk/tk8.6/msgs/de.msg', 'DATA'),
  ('tk/ttk/altTheme.tcl', '/usr/share/tcltk/tk8.6/ttk/altTheme.tcl', 'DATA'),
  ('tcl/msgs/fr_ca.msg', '/usr/share/tcltk/tcl8.6/msgs/fr_ca.msg', 'DATA'),
  ('tcl/msgs/en_sg.msg', '/usr/share/tcltk/tcl8.6/msgs/en_sg.msg', 'DATA'),
  ('tk/panedwindow.tcl', '/usr/share/tcltk/tk8.6/panedwindow.tcl', 'DATA'),
  ('tcl/msgs/fr_be.msg', '/usr/share/tcltk/tcl8.6/msgs/fr_be.msg', 'DATA'),
  ('tcl/msgs/tr.msg', '/usr/share/tcltk/tcl8.6/msgs/tr.msg', 'DATA'),
  ('tk/ttk/progress.tcl', '/usr/share/tcltk/tk8.6/ttk/progress.tcl', 'DATA'),
  ('tcl/msgs/it_ch.msg', '/usr/share/tcltk/tcl8.6/msgs/it_ch.msg', 'DATA'),
  ('tcl/msgs/vi.msg', '/usr/share/tcltk/tcl8.6/msgs/vi.msg', 'DATA'),
  ('tcl/msgs/lt.msg', '/usr/share/tcltk/tcl8.6/msgs/lt.msg', 'DATA'),
  ('tcl/msgs/fa.msg', '/usr/share/tcltk/tcl8.6/msgs/fa.msg', 'DATA'),
  ('tcl/encoding/cp861.enc',
   '/usr/share/tcltk/tcl8.6/encoding/cp861.enc',
   'DATA'),
  ('tcl/encoding/macDingbats.enc',
   '/usr/share/tcltk/tcl8.6/encoding/macDingbats.enc',
   'DATA'),
  ('tcl/msgs/mk.msg', '/usr/share/tcltk/tcl8.6/msgs/mk.msg', 'DATA'),
  ('tcl/msgs/en_hk.msg', '/usr/share/tcltk/tcl8.6/msgs/en_hk.msg', 'DATA')],
 [])
