('/media/codenginebd/My Works and Stuffs1/Upwork/Alex '
 'Rendson/sexoffender/build/program/out00-PYZ.pyz',
 [('posixpath',
   '/home/codenginebd/Desktop/ENV/book_rental/lib/python3.5/posixpath.py',
   'PYMODULE'),
  ('_strptime', '/usr/lib/python3.5/_strptime.py', 'PYMODULE'),
  ('datetime', '/usr/lib/python3.5/datetime.py', 'PYMODULE'),
  ('_compat_pickle', '/usr/lib/python3.5/_compat_pickle.py', 'PYMODULE'),
  ('pickle', '/usr/lib/python3.5/pickle.py', 'PYMODULE'),
  ('__future__',
   '/home/codenginebd/Desktop/ENV/book_rental/lib/python3.5/__future__.py',
   'PYMODULE'),
  ('difflib', '/usr/lib/python3.5/difflib.py', 'PYMODULE'),
  ('ast', '/usr/lib/python3.5/ast.py', 'PYMODULE'),
  ('imp',
   '/home/codenginebd/Desktop/ENV/book_rental/lib/python3.5/imp.py',
   'PYMODULE'),
  ('inspect', '/usr/lib/python3.5/inspect.py', 'PYMODULE'),
  ('cmd', '/usr/lib/python3.5/cmd.py', 'PYMODULE'),
  ('bdb', '/usr/lib/python3.5/bdb.py', 'PYMODULE'),
  ('opcode', '/usr/lib/python3.5/opcode.py', 'PYMODULE'),
  ('dis', '/usr/lib/python3.5/dis.py', 'PYMODULE'),
  ('codeop', '/usr/lib/python3.5/codeop.py', 'PYMODULE'),
  ('code', '/usr/lib/python3.5/code.py', 'PYMODULE'),
  ('glob', '/usr/lib/python3.5/glob.py', 'PYMODULE'),
  ('shlex', '/usr/lib/python3.5/shlex.py', 'PYMODULE'),
  ('importlib._bootstrap',
   '/home/codenginebd/Desktop/ENV/book_rental/lib/python3.5/importlib/_bootstrap.py',
   'PYMODULE'),
  ('importlib._bootstrap_external',
   '/home/codenginebd/Desktop/ENV/book_rental/lib/python3.5/importlib/_bootstrap_external.py',
   'PYMODULE'),
  ('importlib.machinery',
   '/home/codenginebd/Desktop/ENV/book_rental/lib/python3.5/importlib/machinery.py',
   'PYMODULE'),
  ('importlib.util',
   '/home/codenginebd/Desktop/ENV/book_rental/lib/python3.5/importlib/util.py',
   'PYMODULE'),
  ('importlib.abc',
   '/home/codenginebd/Desktop/ENV/book_rental/lib/python3.5/importlib/abc.py',
   'PYMODULE'),
  ('importlib',
   '/home/codenginebd/Desktop/ENV/book_rental/lib/python3.5/importlib/__init__.py',
   'PYMODULE'),
  ('pkgutil', '/usr/lib/python3.5/pkgutil.py', 'PYMODULE'),
  ('ctypes._endian', '/usr/lib/python3.5/ctypes/_endian.py', 'PYMODULE'),
  ('ctypes', '/usr/lib/python3.5/ctypes/__init__.py', 'PYMODULE'),
  ('ctypes.wintypes', '/usr/lib/python3.5/ctypes/wintypes.py', 'PYMODULE'),
  ('xml', '/usr/lib/python3.5/xml/__init__.py', 'PYMODULE'),
  ('xml.sax.expatreader',
   '/usr/lib/python3.5/xml/sax/expatreader.py',
   'PYMODULE'),
  ('xml.sax.saxutils', '/usr/lib/python3.5/xml/sax/saxutils.py', 'PYMODULE'),
  ('urllib.request', '/usr/lib/python3.5/urllib/request.py', 'PYMODULE'),
  ('getpass', '/usr/lib/python3.5/getpass.py', 'PYMODULE'),
  ('nturl2path', '/usr/lib/python3.5/nturl2path.py', 'PYMODULE'),
  ('ftplib', '/usr/lib/python3.5/ftplib.py', 'PYMODULE'),
  ('netrc', '/usr/lib/python3.5/netrc.py', 'PYMODULE'),
  ('http.cookiejar', '/usr/lib/python3.5/http/cookiejar.py', 'PYMODULE'),
  ('urllib.response', '/usr/lib/python3.5/urllib/response.py', 'PYMODULE'),
  ('urllib.error', '/usr/lib/python3.5/urllib/error.py', 'PYMODULE'),
  ('bisect',
   '/home/codenginebd/Desktop/ENV/book_rental/lib/python3.5/bisect.py',
   'PYMODULE'),
  ('xml.sax', '/usr/lib/python3.5/xml/sax/__init__.py', 'PYMODULE'),
  ('xml.sax.handler', '/usr/lib/python3.5/xml/sax/handler.py', 'PYMODULE'),
  ('xml.sax._exceptions',
   '/usr/lib/python3.5/xml/sax/_exceptions.py',
   'PYMODULE'),
  ('xml.sax.xmlreader', '/usr/lib/python3.5/xml/sax/xmlreader.py', 'PYMODULE'),
  ('xml.parsers', '/usr/lib/python3.5/xml/parsers/__init__.py', 'PYMODULE'),
  ('xml.parsers.expat', '/usr/lib/python3.5/xml/parsers/expat.py', 'PYMODULE'),
  ('plistlib', '/usr/lib/python3.5/plistlib.py', 'PYMODULE'),
  ('platform', '/usr/lib/python3.5/platform.py', 'PYMODULE'),
  ('urllib.parse', '/usr/lib/python3.5/urllib/parse.py', 'PYMODULE'),
  ('tempfile',
   '/home/codenginebd/Desktop/ENV/book_rental/lib/python3.5/tempfile.py',
   'PYMODULE'),
  ('tty', '/usr/lib/python3.5/tty.py', 'PYMODULE'),
  ('pydoc_data', '/usr/lib/python3.5/pydoc_data/__init__.py', 'PYMODULE'),
  ('pydoc_data.topics', '/usr/lib/python3.5/pydoc_data/topics.py', 'PYMODULE'),
  ('html.entities', '/usr/lib/python3.5/html/entities.py', 'PYMODULE'),
  ('html', '/usr/lib/python3.5/html/__init__.py', 'PYMODULE'),
  ('ipaddress', '/usr/lib/python3.5/ipaddress.py', 'PYMODULE'),
  ('ssl', '/usr/lib/python3.5/ssl.py', 'PYMODULE'),
  ('http.client', '/usr/lib/python3.5/http/client.py', 'PYMODULE'),
  ('mimetypes', '/usr/lib/python3.5/mimetypes.py', 'PYMODULE'),
  ('socketserver', '/usr/lib/python3.5/socketserver.py', 'PYMODULE'),
  ('http', '/usr/lib/python3.5/http/__init__.py', 'PYMODULE'),
  ('http.server', '/usr/lib/python3.5/http/server.py', 'PYMODULE'),
  ('uu', '/usr/lib/python3.5/uu.py', 'PYMODULE'),
  ('email.feedparser', '/usr/lib/python3.5/email/feedparser.py', 'PYMODULE'),
  ('email.parser', '/usr/lib/python3.5/email/parser.py', 'PYMODULE'),
  ('email', '/usr/lib/python3.5/email/__init__.py', 'PYMODULE'),
  ('optparse', '/usr/lib/python3.5/optparse.py', 'PYMODULE'),
  ('calendar', '/usr/lib/python3.5/calendar.py', 'PYMODULE'),
  ('email._parseaddr', '/usr/lib/python3.5/email/_parseaddr.py', 'PYMODULE'),
  ('email.utils', '/usr/lib/python3.5/email/utils.py', 'PYMODULE'),
  ('email.errors', '/usr/lib/python3.5/email/errors.py', 'PYMODULE'),
  ('email.header', '/usr/lib/python3.5/email/header.py', 'PYMODULE'),
  ('email._policybase', '/usr/lib/python3.5/email/_policybase.py', 'PYMODULE'),
  ('email.base64mime', '/usr/lib/python3.5/email/base64mime.py', 'PYMODULE'),
  ('email.encoders', '/usr/lib/python3.5/email/encoders.py', 'PYMODULE'),
  ('email.charset', '/usr/lib/python3.5/email/charset.py', 'PYMODULE'),
  ('email._encoded_words',
   '/usr/lib/python3.5/email/_encoded_words.py',
   'PYMODULE'),
  ('hashlib',
   '/home/codenginebd/Desktop/ENV/book_rental/lib/python3.5/hashlib.py',
   'PYMODULE'),
  ('random',
   '/home/codenginebd/Desktop/ENV/book_rental/lib/python3.5/random.py',
   'PYMODULE'),
  ('email.generator', '/usr/lib/python3.5/email/generator.py', 'PYMODULE'),
  ('email.iterators', '/usr/lib/python3.5/email/iterators.py', 'PYMODULE'),
  ('urllib', '/usr/lib/python3.5/urllib/__init__.py', 'PYMODULE'),
  ('email._header_value_parser',
   '/usr/lib/python3.5/email/_header_value_parser.py',
   'PYMODULE'),
  ('email.headerregistry',
   '/usr/lib/python3.5/email/headerregistry.py',
   'PYMODULE'),
  ('email.quoprimime', '/usr/lib/python3.5/email/quoprimime.py', 'PYMODULE'),
  ('email.contentmanager',
   '/usr/lib/python3.5/email/contentmanager.py',
   'PYMODULE'),
  ('email.policy', '/usr/lib/python3.5/email/policy.py', 'PYMODULE'),
  ('email.message', '/usr/lib/python3.5/email/message.py', 'PYMODULE'),
  ('gzip', '/usr/lib/python3.5/gzip.py', 'PYMODULE'),
  ('tarfile',
   '/home/codenginebd/Desktop/ENV/book_rental/lib/python3.5/tarfile.py',
   'PYMODULE'),
  ('lzma', '/usr/lib/python3.5/lzma.py', 'PYMODULE'),
  ('py_compile', '/usr/lib/python3.5/py_compile.py', 'PYMODULE'),
  ('zipfile', '/usr/lib/python3.5/zipfile.py', 'PYMODULE'),
  ('shutil',
   '/home/codenginebd/Desktop/ENV/book_rental/lib/python3.5/shutil.py',
   'PYMODULE'),
  ('socket', '/usr/lib/python3.5/socket.py', 'PYMODULE'),
  ('webbrowser', '/usr/lib/python3.5/webbrowser.py', 'PYMODULE'),
  ('pydoc', '/usr/lib/python3.5/pydoc.py', 'PYMODULE'),
  ('pdb', '/usr/lib/python3.5/pdb.py', 'PYMODULE'),
  ('unittest.util', '/usr/lib/python3.5/unittest/util.py', 'PYMODULE'),
  ('unittest.result', '/usr/lib/python3.5/unittest/result.py', 'PYMODULE'),
  ('logging', '/usr/lib/python3.5/logging/__init__.py', 'PYMODULE'),
  ('pprint', '/usr/lib/python3.5/pprint.py', 'PYMODULE'),
  ('unittest.case', '/usr/lib/python3.5/unittest/case.py', 'PYMODULE'),
  ('unittest.suite', '/usr/lib/python3.5/unittest/suite.py', 'PYMODULE'),
  ('fnmatch',
   '/home/codenginebd/Desktop/ENV/book_rental/lib/python3.5/fnmatch.py',
   'PYMODULE'),
  ('unittest.loader', '/usr/lib/python3.5/unittest/loader.py', 'PYMODULE'),
  ('unittest.runner', '/usr/lib/python3.5/unittest/runner.py', 'PYMODULE'),
  ('unittest.main', '/usr/lib/python3.5/unittest/main.py', 'PYMODULE'),
  ('unittest.signals', '/usr/lib/python3.5/unittest/signals.py', 'PYMODULE'),
  ('unittest', '/usr/lib/python3.5/unittest/__init__.py', 'PYMODULE'),
  ('doctest', '/usr/lib/python3.5/doctest.py', 'PYMODULE'),
  ('base64',
   '/home/codenginebd/Desktop/ENV/book_rental/lib/python3.5/base64.py',
   'PYMODULE'),
  ('stringprep', '/usr/lib/python3.5/stringprep.py', 'PYMODULE'),
  ('getopt', '/usr/lib/python3.5/getopt.py', 'PYMODULE'),
  ('quopri', '/usr/lib/python3.5/quopri.py', 'PYMODULE'),
  ('_compression', '/usr/lib/python3.5/_compression.py', 'PYMODULE'),
  ('bz2', '/usr/lib/python3.5/bz2.py', 'PYMODULE'),
  ('token',
   '/home/codenginebd/Desktop/ENV/book_rental/lib/python3.5/token.py',
   'PYMODULE'),
  ('copy',
   '/home/codenginebd/Desktop/ENV/book_rental/lib/python3.5/copy.py',
   'PYMODULE'),
  ('textwrap', '/usr/lib/python3.5/textwrap.py', 'PYMODULE'),
  ('struct',
   '/home/codenginebd/Desktop/ENV/book_rental/lib/python3.5/struct.py',
   'PYMODULE'),
  ('gettext', '/usr/lib/python3.5/gettext.py', 'PYMODULE'),
  ('argparse', '/usr/lib/python3.5/argparse.py', 'PYMODULE'),
  ('tokenize',
   '/home/codenginebd/Desktop/ENV/book_rental/lib/python3.5/tokenize.py',
   'PYMODULE'),
  ('stat',
   '/home/codenginebd/Desktop/ENV/book_rental/lib/python3.5/stat.py',
   'PYMODULE'),
  ('genericpath',
   '/home/codenginebd/Desktop/ENV/book_rental/lib/python3.5/genericpath.py',
   'PYMODULE'),
  ('string', '/usr/lib/python3.5/string.py', 'PYMODULE'),
  ('ntpath',
   '/home/codenginebd/Desktop/ENV/book_rental/lib/python3.5/ntpath.py',
   'PYMODULE'),
  ('warnings',
   '/home/codenginebd/Desktop/ENV/book_rental/lib/python3.5/warnings.py',
   'PYMODULE'),
  ('enum', '/usr/lib/python3.5/enum.py', 'PYMODULE'),
  ('signal', '/usr/lib/python3.5/signal.py', 'PYMODULE'),
  ('contextlib', '/usr/lib/python3.5/contextlib.py', 'PYMODULE'),
  ('_threading_local', '/usr/lib/python3.5/_threading_local.py', 'PYMODULE'),
  ('selectors', '/usr/lib/python3.5/selectors.py', 'PYMODULE'),
  ('_dummy_thread',
   '/home/codenginebd/Desktop/ENV/book_rental/lib/python3.5/_dummy_thread.py',
   'PYMODULE'),
  ('dummy_threading', '/usr/lib/python3.5/dummy_threading.py', 'PYMODULE'),
  ('subprocess', '/usr/lib/python3.5/subprocess.py', 'PYMODULE'),
  ('os',
   '/home/codenginebd/Desktop/ENV/book_rental/lib/python3.5/os.py',
   'PYMODULE'),
  ('threading', '/usr/lib/python3.5/threading.py', 'PYMODULE'),
  ('scraper',
   '/media/codenginebd/My Works and Stuffs1/Upwork/Alex '
   'Rendson/sexoffender/scraper.py',
   'PYMODULE'),
  ('uuid', '/usr/lib/python3.5/uuid.py', 'PYMODULE'),
  ('ctypes.util', '/usr/lib/python3.5/ctypes/util.py', 'PYMODULE'),
  ('csv', '/usr/lib/python3.5/csv.py', 'PYMODULE'),
  ('parser',
   '/media/codenginebd/My Works and Stuffs1/Upwork/Alex '
   'Rendson/sexoffender/parser.py',
   'PYMODULE'),
  ('bs4',
   '/home/codenginebd/Desktop/ENV/book_rental/lib/python3.5/site-packages/bs4/__init__.py',
   'PYMODULE'),
  ('bs4.element',
   '/home/codenginebd/Desktop/ENV/book_rental/lib/python3.5/site-packages/bs4/element.py',
   'PYMODULE'),
  ('bs4.dammit',
   '/home/codenginebd/Desktop/ENV/book_rental/lib/python3.5/site-packages/bs4/dammit.py',
   'PYMODULE'),
  ('chardet',
   '/home/codenginebd/Desktop/ENV/book_rental/lib/python3.5/site-packages/chardet/__init__.py',
   'PYMODULE'),
  ('chardet.version',
   '/home/codenginebd/Desktop/ENV/book_rental/lib/python3.5/site-packages/chardet/version.py',
   'PYMODULE'),
  ('chardet.universaldetector',
   '/home/codenginebd/Desktop/ENV/book_rental/lib/python3.5/site-packages/chardet/universaldetector.py',
   'PYMODULE'),
  ('chardet.sbcsgroupprober',
   '/home/codenginebd/Desktop/ENV/book_rental/lib/python3.5/site-packages/chardet/sbcsgroupprober.py',
   'PYMODULE'),
  ('chardet.langturkishmodel',
   '/home/codenginebd/Desktop/ENV/book_rental/lib/python3.5/site-packages/chardet/langturkishmodel.py',
   'PYMODULE'),
  ('chardet.hebrewprober',
   '/home/codenginebd/Desktop/ENV/book_rental/lib/python3.5/site-packages/chardet/hebrewprober.py',
   'PYMODULE'),
  ('chardet.charsetprober',
   '/home/codenginebd/Desktop/ENV/book_rental/lib/python3.5/site-packages/chardet/charsetprober.py',
   'PYMODULE'),
  ('chardet.langhebrewmodel',
   '/home/codenginebd/Desktop/ENV/book_rental/lib/python3.5/site-packages/chardet/langhebrewmodel.py',
   'PYMODULE'),
  ('chardet.langthaimodel',
   '/home/codenginebd/Desktop/ENV/book_rental/lib/python3.5/site-packages/chardet/langthaimodel.py',
   'PYMODULE'),
  ('chardet.langbulgarianmodel',
   '/home/codenginebd/Desktop/ENV/book_rental/lib/python3.5/site-packages/chardet/langbulgarianmodel.py',
   'PYMODULE'),
  ('chardet.langgreekmodel',
   '/home/codenginebd/Desktop/ENV/book_rental/lib/python3.5/site-packages/chardet/langgreekmodel.py',
   'PYMODULE'),
  ('chardet.langcyrillicmodel',
   '/home/codenginebd/Desktop/ENV/book_rental/lib/python3.5/site-packages/chardet/langcyrillicmodel.py',
   'PYMODULE'),
  ('chardet.sbcharsetprober',
   '/home/codenginebd/Desktop/ENV/book_rental/lib/python3.5/site-packages/chardet/sbcharsetprober.py',
   'PYMODULE'),
  ('chardet.mbcsgroupprober',
   '/home/codenginebd/Desktop/ENV/book_rental/lib/python3.5/site-packages/chardet/mbcsgroupprober.py',
   'PYMODULE'),
  ('chardet.euctwprober',
   '/home/codenginebd/Desktop/ENV/book_rental/lib/python3.5/site-packages/chardet/euctwprober.py',
   'PYMODULE'),
  ('chardet.mbcssm',
   '/home/codenginebd/Desktop/ENV/book_rental/lib/python3.5/site-packages/chardet/mbcssm.py',
   'PYMODULE'),
  ('chardet.chardistribution',
   '/home/codenginebd/Desktop/ENV/book_rental/lib/python3.5/site-packages/chardet/chardistribution.py',
   'PYMODULE'),
  ('chardet.jisfreq',
   '/home/codenginebd/Desktop/ENV/book_rental/lib/python3.5/site-packages/chardet/jisfreq.py',
   'PYMODULE'),
  ('chardet.big5freq',
   '/home/codenginebd/Desktop/ENV/book_rental/lib/python3.5/site-packages/chardet/big5freq.py',
   'PYMODULE'),
  ('chardet.gb2312freq',
   '/home/codenginebd/Desktop/ENV/book_rental/lib/python3.5/site-packages/chardet/gb2312freq.py',
   'PYMODULE'),
  ('chardet.euckrfreq',
   '/home/codenginebd/Desktop/ENV/book_rental/lib/python3.5/site-packages/chardet/euckrfreq.py',
   'PYMODULE'),
  ('chardet.euctwfreq',
   '/home/codenginebd/Desktop/ENV/book_rental/lib/python3.5/site-packages/chardet/euctwfreq.py',
   'PYMODULE'),
  ('chardet.codingstatemachine',
   '/home/codenginebd/Desktop/ENV/book_rental/lib/python3.5/site-packages/chardet/codingstatemachine.py',
   'PYMODULE'),
  ('chardet.mbcharsetprober',
   '/home/codenginebd/Desktop/ENV/book_rental/lib/python3.5/site-packages/chardet/mbcharsetprober.py',
   'PYMODULE'),
  ('chardet.big5prober',
   '/home/codenginebd/Desktop/ENV/book_rental/lib/python3.5/site-packages/chardet/big5prober.py',
   'PYMODULE'),
  ('chardet.cp949prober',
   '/home/codenginebd/Desktop/ENV/book_rental/lib/python3.5/site-packages/chardet/cp949prober.py',
   'PYMODULE'),
  ('chardet.euckrprober',
   '/home/codenginebd/Desktop/ENV/book_rental/lib/python3.5/site-packages/chardet/euckrprober.py',
   'PYMODULE'),
  ('chardet.gb2312prober',
   '/home/codenginebd/Desktop/ENV/book_rental/lib/python3.5/site-packages/chardet/gb2312prober.py',
   'PYMODULE'),
  ('chardet.eucjpprober',
   '/home/codenginebd/Desktop/ENV/book_rental/lib/python3.5/site-packages/chardet/eucjpprober.py',
   'PYMODULE'),
  ('chardet.jpcntx',
   '/home/codenginebd/Desktop/ENV/book_rental/lib/python3.5/site-packages/chardet/jpcntx.py',
   'PYMODULE'),
  ('chardet.sjisprober',
   '/home/codenginebd/Desktop/ENV/book_rental/lib/python3.5/site-packages/chardet/sjisprober.py',
   'PYMODULE'),
  ('chardet.utf8prober',
   '/home/codenginebd/Desktop/ENV/book_rental/lib/python3.5/site-packages/chardet/utf8prober.py',
   'PYMODULE'),
  ('chardet.latin1prober',
   '/home/codenginebd/Desktop/ENV/book_rental/lib/python3.5/site-packages/chardet/latin1prober.py',
   'PYMODULE'),
  ('chardet.escprober',
   '/home/codenginebd/Desktop/ENV/book_rental/lib/python3.5/site-packages/chardet/escprober.py',
   'PYMODULE'),
  ('chardet.escsm',
   '/home/codenginebd/Desktop/ENV/book_rental/lib/python3.5/site-packages/chardet/escsm.py',
   'PYMODULE'),
  ('chardet.enums',
   '/home/codenginebd/Desktop/ENV/book_rental/lib/python3.5/site-packages/chardet/enums.py',
   'PYMODULE'),
  ('chardet.charsetgroupprober',
   '/home/codenginebd/Desktop/ENV/book_rental/lib/python3.5/site-packages/chardet/charsetgroupprober.py',
   'PYMODULE'),
  ('chardet.compat',
   '/home/codenginebd/Desktop/ENV/book_rental/lib/python3.5/site-packages/chardet/compat.py',
   'PYMODULE'),
  ('bs4.builder',
   '/home/codenginebd/Desktop/ENV/book_rental/lib/python3.5/site-packages/bs4/builder/__init__.py',
   'PYMODULE'),
  ('bs4.builder._lxml',
   '/home/codenginebd/Desktop/ENV/book_rental/lib/python3.5/site-packages/bs4/builder/_lxml.py',
   'PYMODULE'),
  ('lxml',
   '/home/codenginebd/Desktop/ENV/book_rental/lib/python3.5/site-packages/lxml/__init__.py',
   'PYMODULE'),
  ('bs4.builder._html5lib',
   '/home/codenginebd/Desktop/ENV/book_rental/lib/python3.5/site-packages/bs4/builder/_html5lib.py',
   'PYMODULE'),
  ('bs4.builder._htmlparser',
   '/home/codenginebd/Desktop/ENV/book_rental/lib/python3.5/site-packages/bs4/builder/_htmlparser.py',
   'PYMODULE'),
  ('html.parser', '/usr/lib/python3.5/html/parser.py', 'PYMODULE'),
  ('_markupbase', '/usr/lib/python3.5/_markupbase.py', 'PYMODULE'),
  ('web_browser',
   '/media/codenginebd/My Works and Stuffs1/Upwork/Alex '
   'Rendson/sexoffender/web_browser.py',
   'PYMODULE'),
  ('selenium.webdriver.common.keys',
   '/home/codenginebd/Desktop/ENV/book_rental/lib/python3.5/site-packages/selenium/webdriver/common/keys.py',
   'PYMODULE'),
  ('selenium.webdriver.common',
   '/home/codenginebd/Desktop/ENV/book_rental/lib/python3.5/site-packages/selenium/webdriver/common/__init__.py',
   'PYMODULE'),
  ('selenium.webdriver.common.service',
   '/home/codenginebd/Desktop/ENV/book_rental/lib/python3.5/site-packages/selenium/webdriver/common/service.py',
   'PYMODULE'),
  ('selenium.webdriver.common.utils',
   '/home/codenginebd/Desktop/ENV/book_rental/lib/python3.5/site-packages/selenium/webdriver/common/utils.py',
   'PYMODULE'),
  ('selenium.common.exceptions',
   '/home/codenginebd/Desktop/ENV/book_rental/lib/python3.5/site-packages/selenium/common/exceptions.py',
   'PYMODULE'),
  ('selenium.common',
   '/home/codenginebd/Desktop/ENV/book_rental/lib/python3.5/site-packages/selenium/common/__init__.py',
   'PYMODULE'),
  ('selenium.webdriver',
   '/home/codenginebd/Desktop/ENV/book_rental/lib/python3.5/site-packages/selenium/webdriver/__init__.py',
   'PYMODULE'),
  ('selenium.webdriver.common.proxy',
   '/home/codenginebd/Desktop/ENV/book_rental/lib/python3.5/site-packages/selenium/webdriver/common/proxy.py',
   'PYMODULE'),
  ('selenium.webdriver.common.touch_actions',
   '/home/codenginebd/Desktop/ENV/book_rental/lib/python3.5/site-packages/selenium/webdriver/common/touch_actions.py',
   'PYMODULE'),
  ('selenium.webdriver.remote.command',
   '/home/codenginebd/Desktop/ENV/book_rental/lib/python3.5/site-packages/selenium/webdriver/remote/command.py',
   'PYMODULE'),
  ('selenium.webdriver.remote',
   '/home/codenginebd/Desktop/ENV/book_rental/lib/python3.5/site-packages/selenium/webdriver/remote/__init__.py',
   'PYMODULE'),
  ('selenium.webdriver.remote.utils',
   '/home/codenginebd/Desktop/ENV/book_rental/lib/python3.5/site-packages/selenium/webdriver/remote/utils.py',
   'PYMODULE'),
  ('json', '/usr/lib/python3.5/json/__init__.py', 'PYMODULE'),
  ('json.encoder', '/usr/lib/python3.5/json/encoder.py', 'PYMODULE'),
  ('json.decoder', '/usr/lib/python3.5/json/decoder.py', 'PYMODULE'),
  ('json.scanner', '/usr/lib/python3.5/json/scanner.py', 'PYMODULE'),
  ('selenium.webdriver.common.action_chains',
   '/home/codenginebd/Desktop/ENV/book_rental/lib/python3.5/site-packages/selenium/webdriver/common/action_chains.py',
   'PYMODULE'),
  ('selenium.webdriver.common.actions.action_builder',
   '/home/codenginebd/Desktop/ENV/book_rental/lib/python3.5/site-packages/selenium/webdriver/common/actions/action_builder.py',
   'PYMODULE'),
  ('selenium.webdriver.common.actions.pointer_input',
   '/home/codenginebd/Desktop/ENV/book_rental/lib/python3.5/site-packages/selenium/webdriver/common/actions/pointer_input.py',
   'PYMODULE'),
  ('selenium.webdriver.remote.webelement',
   '/home/codenginebd/Desktop/ENV/book_rental/lib/python3.5/site-packages/selenium/webdriver/remote/webelement.py',
   'PYMODULE'),
  ('selenium.webdriver.common.by',
   '/home/codenginebd/Desktop/ENV/book_rental/lib/python3.5/site-packages/selenium/webdriver/common/by.py',
   'PYMODULE'),
  ('selenium.webdriver.common.actions.input_device',
   '/home/codenginebd/Desktop/ENV/book_rental/lib/python3.5/site-packages/selenium/webdriver/common/actions/input_device.py',
   'PYMODULE'),
  ('selenium.webdriver.common.actions.pointer_actions',
   '/home/codenginebd/Desktop/ENV/book_rental/lib/python3.5/site-packages/selenium/webdriver/common/actions/pointer_actions.py',
   'PYMODULE'),
  ('selenium.webdriver.common.actions.mouse_button',
   '/home/codenginebd/Desktop/ENV/book_rental/lib/python3.5/site-packages/selenium/webdriver/common/actions/mouse_button.py',
   'PYMODULE'),
  ('selenium.webdriver.common.actions.key_input',
   '/home/codenginebd/Desktop/ENV/book_rental/lib/python3.5/site-packages/selenium/webdriver/common/actions/key_input.py',
   'PYMODULE'),
  ('selenium.webdriver.common.actions.key_actions',
   '/home/codenginebd/Desktop/ENV/book_rental/lib/python3.5/site-packages/selenium/webdriver/common/actions/key_actions.py',
   'PYMODULE'),
  ('selenium.webdriver.common.actions.interaction',
   '/home/codenginebd/Desktop/ENV/book_rental/lib/python3.5/site-packages/selenium/webdriver/common/actions/interaction.py',
   'PYMODULE'),
  ('selenium.webdriver.common.actions',
   '/home/codenginebd/Desktop/ENV/book_rental/lib/python3.5/site-packages/selenium/webdriver/common/actions/__init__.py',
   'PYMODULE'),
  ('selenium.webdriver.common.desired_capabilities',
   '/home/codenginebd/Desktop/ENV/book_rental/lib/python3.5/site-packages/selenium/webdriver/common/desired_capabilities.py',
   'PYMODULE'),
  ('selenium.webdriver.remote.webdriver',
   '/home/codenginebd/Desktop/ENV/book_rental/lib/python3.5/site-packages/selenium/webdriver/remote/webdriver.py',
   'PYMODULE'),
  ('selenium.webdriver.common.html5.application_cache',
   '/home/codenginebd/Desktop/ENV/book_rental/lib/python3.5/site-packages/selenium/webdriver/common/html5/application_cache.py',
   'PYMODULE'),
  ('selenium.webdriver.common.html5',
   '/home/codenginebd/Desktop/ENV/book_rental/lib/python3.5/site-packages/selenium/webdriver/common/html5/__init__.py',
   'PYMODULE'),
  ('selenium.webdriver.remote.file_detector',
   '/home/codenginebd/Desktop/ENV/book_rental/lib/python3.5/site-packages/selenium/webdriver/remote/file_detector.py',
   'PYMODULE'),
  ('selenium.webdriver.remote.mobile',
   '/home/codenginebd/Desktop/ENV/book_rental/lib/python3.5/site-packages/selenium/webdriver/remote/mobile.py',
   'PYMODULE'),
  ('selenium.webdriver.remote.switch_to',
   '/home/codenginebd/Desktop/ENV/book_rental/lib/python3.5/site-packages/selenium/webdriver/remote/switch_to.py',
   'PYMODULE'),
  ('selenium.webdriver.common.alert',
   '/home/codenginebd/Desktop/ENV/book_rental/lib/python3.5/site-packages/selenium/webdriver/common/alert.py',
   'PYMODULE'),
  ('selenium.webdriver.remote.errorhandler',
   '/home/codenginebd/Desktop/ENV/book_rental/lib/python3.5/site-packages/selenium/webdriver/remote/errorhandler.py',
   'PYMODULE'),
  ('selenium.webdriver.remote.remote_connection',
   '/home/codenginebd/Desktop/ENV/book_rental/lib/python3.5/site-packages/selenium/webdriver/remote/remote_connection.py',
   'PYMODULE'),
  ('selenium.webdriver.android.webdriver',
   '/home/codenginebd/Desktop/ENV/book_rental/lib/python3.5/site-packages/selenium/webdriver/android/webdriver.py',
   'PYMODULE'),
  ('selenium.webdriver.android',
   '/home/codenginebd/Desktop/ENV/book_rental/lib/python3.5/site-packages/selenium/webdriver/android/__init__.py',
   'PYMODULE'),
  ('selenium.webdriver.phantomjs.webdriver',
   '/home/codenginebd/Desktop/ENV/book_rental/lib/python3.5/site-packages/selenium/webdriver/phantomjs/webdriver.py',
   'PYMODULE'),
  ('selenium.webdriver.phantomjs',
   '/home/codenginebd/Desktop/ENV/book_rental/lib/python3.5/site-packages/selenium/webdriver/phantomjs/__init__.py',
   'PYMODULE'),
  ('selenium.webdriver.phantomjs.service',
   '/home/codenginebd/Desktop/ENV/book_rental/lib/python3.5/site-packages/selenium/webdriver/phantomjs/service.py',
   'PYMODULE'),
  ('selenium.webdriver.blackberry.webdriver',
   '/home/codenginebd/Desktop/ENV/book_rental/lib/python3.5/site-packages/selenium/webdriver/blackberry/webdriver.py',
   'PYMODULE'),
  ('selenium.webdriver.blackberry',
   '/home/codenginebd/Desktop/ENV/book_rental/lib/python3.5/site-packages/selenium/webdriver/blackberry/__init__.py',
   'PYMODULE'),
  ('selenium.webdriver.support.ui',
   '/home/codenginebd/Desktop/ENV/book_rental/lib/python3.5/site-packages/selenium/webdriver/support/ui.py',
   'PYMODULE'),
  ('selenium.webdriver.support',
   '/home/codenginebd/Desktop/ENV/book_rental/lib/python3.5/site-packages/selenium/webdriver/support/__init__.py',
   'PYMODULE'),
  ('selenium.webdriver.support.wait',
   '/home/codenginebd/Desktop/ENV/book_rental/lib/python3.5/site-packages/selenium/webdriver/support/wait.py',
   'PYMODULE'),
  ('selenium.webdriver.support.select',
   '/home/codenginebd/Desktop/ENV/book_rental/lib/python3.5/site-packages/selenium/webdriver/support/select.py',
   'PYMODULE'),
  ('selenium.webdriver.safari.webdriver',
   '/home/codenginebd/Desktop/ENV/book_rental/lib/python3.5/site-packages/selenium/webdriver/safari/webdriver.py',
   'PYMODULE'),
  ('selenium.webdriver.safari',
   '/home/codenginebd/Desktop/ENV/book_rental/lib/python3.5/site-packages/selenium/webdriver/safari/__init__.py',
   'PYMODULE'),
  ('selenium.webdriver.safari.service',
   '/home/codenginebd/Desktop/ENV/book_rental/lib/python3.5/site-packages/selenium/webdriver/safari/service.py',
   'PYMODULE'),
  ('selenium.webdriver.opera.webdriver',
   '/home/codenginebd/Desktop/ENV/book_rental/lib/python3.5/site-packages/selenium/webdriver/opera/webdriver.py',
   'PYMODULE'),
  ('selenium.webdriver.opera',
   '/home/codenginebd/Desktop/ENV/book_rental/lib/python3.5/site-packages/selenium/webdriver/opera/__init__.py',
   'PYMODULE'),
  ('selenium.webdriver.opera.options',
   '/home/codenginebd/Desktop/ENV/book_rental/lib/python3.5/site-packages/selenium/webdriver/opera/options.py',
   'PYMODULE'),
  ('selenium.webdriver.edge.webdriver',
   '/home/codenginebd/Desktop/ENV/book_rental/lib/python3.5/site-packages/selenium/webdriver/edge/webdriver.py',
   'PYMODULE'),
  ('selenium.webdriver.edge',
   '/home/codenginebd/Desktop/ENV/book_rental/lib/python3.5/site-packages/selenium/webdriver/edge/__init__.py',
   'PYMODULE'),
  ('selenium.webdriver.edge.service',
   '/home/codenginebd/Desktop/ENV/book_rental/lib/python3.5/site-packages/selenium/webdriver/edge/service.py',
   'PYMODULE'),
  ('selenium.webdriver.ie.webdriver',
   '/home/codenginebd/Desktop/ENV/book_rental/lib/python3.5/site-packages/selenium/webdriver/ie/webdriver.py',
   'PYMODULE'),
  ('selenium.webdriver.ie',
   '/home/codenginebd/Desktop/ENV/book_rental/lib/python3.5/site-packages/selenium/webdriver/ie/__init__.py',
   'PYMODULE'),
  ('selenium.webdriver.ie.options',
   '/home/codenginebd/Desktop/ENV/book_rental/lib/python3.5/site-packages/selenium/webdriver/ie/options.py',
   'PYMODULE'),
  ('selenium.webdriver.ie.service',
   '/home/codenginebd/Desktop/ENV/book_rental/lib/python3.5/site-packages/selenium/webdriver/ie/service.py',
   'PYMODULE'),
  ('selenium.webdriver.chrome.options',
   '/home/codenginebd/Desktop/ENV/book_rental/lib/python3.5/site-packages/selenium/webdriver/chrome/options.py',
   'PYMODULE'),
  ('selenium.webdriver.chrome',
   '/home/codenginebd/Desktop/ENV/book_rental/lib/python3.5/site-packages/selenium/webdriver/chrome/__init__.py',
   'PYMODULE'),
  ('selenium.webdriver.chrome.webdriver',
   '/home/codenginebd/Desktop/ENV/book_rental/lib/python3.5/site-packages/selenium/webdriver/chrome/webdriver.py',
   'PYMODULE'),
  ('selenium.webdriver.chrome.service',
   '/home/codenginebd/Desktop/ENV/book_rental/lib/python3.5/site-packages/selenium/webdriver/chrome/service.py',
   'PYMODULE'),
  ('selenium.webdriver.chrome.remote_connection',
   '/home/codenginebd/Desktop/ENV/book_rental/lib/python3.5/site-packages/selenium/webdriver/chrome/remote_connection.py',
   'PYMODULE'),
  ('selenium.webdriver.firefox.firefox_profile',
   '/home/codenginebd/Desktop/ENV/book_rental/lib/python3.5/site-packages/selenium/webdriver/firefox/firefox_profile.py',
   'PYMODULE'),
  ('selenium.webdriver.firefox',
   '/home/codenginebd/Desktop/ENV/book_rental/lib/python3.5/site-packages/selenium/webdriver/firefox/__init__.py',
   'PYMODULE'),
  ('xml.dom.minidom', '/usr/lib/python3.5/xml/dom/minidom.py', 'PYMODULE'),
  ('xml.dom.pulldom', '/usr/lib/python3.5/xml/dom/pulldom.py', 'PYMODULE'),
  ('xml.dom.expatbuilder',
   '/usr/lib/python3.5/xml/dom/expatbuilder.py',
   'PYMODULE'),
  ('xml.dom.NodeFilter',
   '/usr/lib/python3.5/xml/dom/NodeFilter.py',
   'PYMODULE'),
  ('xml.dom.xmlbuilder',
   '/usr/lib/python3.5/xml/dom/xmlbuilder.py',
   'PYMODULE'),
  ('xml.dom.minicompat',
   '/usr/lib/python3.5/xml/dom/minicompat.py',
   'PYMODULE'),
  ('xml.dom.domreg', '/usr/lib/python3.5/xml/dom/domreg.py', 'PYMODULE'),
  ('xml.dom', '/usr/lib/python3.5/xml/dom/__init__.py', 'PYMODULE'),
  ('selenium.webdriver.firefox.webdriver',
   '/home/codenginebd/Desktop/ENV/book_rental/lib/python3.5/site-packages/selenium/webdriver/firefox/webdriver.py',
   'PYMODULE'),
  ('selenium.webdriver.firefox.webelement',
   '/home/codenginebd/Desktop/ENV/book_rental/lib/python3.5/site-packages/selenium/webdriver/firefox/webelement.py',
   'PYMODULE'),
  ('selenium.webdriver.firefox.service',
   '/home/codenginebd/Desktop/ENV/book_rental/lib/python3.5/site-packages/selenium/webdriver/firefox/service.py',
   'PYMODULE'),
  ('selenium.webdriver.firefox.remote_connection',
   '/home/codenginebd/Desktop/ENV/book_rental/lib/python3.5/site-packages/selenium/webdriver/firefox/remote_connection.py',
   'PYMODULE'),
  ('selenium.webdriver.firefox.options',
   '/home/codenginebd/Desktop/ENV/book_rental/lib/python3.5/site-packages/selenium/webdriver/firefox/options.py',
   'PYMODULE'),
  ('selenium.webdriver.firefox.firefox_binary',
   '/home/codenginebd/Desktop/ENV/book_rental/lib/python3.5/site-packages/selenium/webdriver/firefox/firefox_binary.py',
   'PYMODULE'),
  ('selenium.webdriver.firefox.extension_connection',
   '/home/codenginebd/Desktop/ENV/book_rental/lib/python3.5/site-packages/selenium/webdriver/firefox/extension_connection.py',
   'PYMODULE'),
  ('selenium',
   '/home/codenginebd/Desktop/ENV/book_rental/lib/python3.5/site-packages/selenium/__init__.py',
   'PYMODULE'),
  ('tkinter.messagebox',
   '/usr/lib/python3.5/tkinter/messagebox.py',
   'PYMODULE'),
  ('tkinter.commondialog',
   '/usr/lib/python3.5/tkinter/commondialog.py',
   'PYMODULE'),
  ('tkinter.filedialog',
   '/usr/lib/python3.5/tkinter/filedialog.py',
   'PYMODULE'),
  ('tkinter.dialog', '/usr/lib/python3.5/tkinter/dialog.py', 'PYMODULE'),
  ('tkinter', '/usr/lib/python3.5/tkinter/__init__.py', 'PYMODULE'),
  ('tkinter.constants', '/usr/lib/python3.5/tkinter/constants.py', 'PYMODULE')])
